ply
format ascii 1.0
comment Created by Blender 2.78 (sub 0) - www.blender.org, source file: ''
element vertex 201
property float x
property float y
property float z
property float nx
property float ny
property float nz
property uchar red
property uchar green
property uchar blue
element face 81
property list uchar uint vertex_indices
end_header
0.094488 0.946113 0.385297 -0.054160 -0.322860 0.944896 20 97 13
-0.100956 0.473056 0.212457 -0.054160 -0.322860 0.944896 20 97 13
0.094488 0.000000 0.062021 -0.054160 -0.322860 0.944896 20 97 13
-0.100956 0.473056 0.212457 -0.821676 0.184286 -0.539340 20 97 13
0.006468 0.946113 0.210436 -0.821676 0.184286 -0.539340 20 97 13
0.006468 0.473056 0.048798 -0.821676 0.184286 -0.539340 20 97 13
0.006468 0.473056 0.048798 0.882860 0.151849 -0.444409 20 97 13
0.094488 0.946113 0.385297 0.882860 0.151849 -0.444409 20 97 13
0.094488 0.000000 0.062021 0.882860 0.151849 -0.444409 20 97 13
-0.186205 1.689376 0.269231 -0.056715 0.133096 0.989479 20 97 13
-0.100956 0.946113 0.374094 -0.056715 0.133096 0.989479 20 97 13
0.094488 0.946113 0.385297 -0.056715 0.133096 0.989479 20 97 13
-0.100956 0.946113 0.374094 -0.775825 -0.372513 -0.509244 20 97 13
-0.274226 1.689376 0.094370 -0.775825 -0.372513 -0.509244 22 98 15
0.006468 0.946113 0.210436 -0.775825 -0.372513 -0.509244 20 97 13
0.006468 0.946113 0.210436 0.862963 0.258064 -0.434393 20 97 13
-0.186205 1.689376 0.269231 0.862963 0.258064 -0.434393 24 100 17
0.094488 0.946113 0.385297 0.862963 0.258064 -0.434393 20 97 13
0.006468 0.946113 0.210436 0.030899 0.199775 -0.979355 20 97 13
0.350226 1.059740 0.244460 0.030899 0.199775 -0.979355 20 97 13
0.355327 1.046365 0.241892 0.030899 0.199775 -0.979355 20 97 13
1.022229 1.296628 0.502624 0.413574 -0.017027 0.910312 20 97 13
0.579254 1.059740 0.699446 0.413574 -0.017027 0.910312 20 97 13
0.584355 1.046365 0.696879 0.413574 -0.017027 0.910312 20 97 13
-0.100956 0.473056 0.212457 -0.466868 -0.829533 -0.306447 20 97 13
-0.237268 0.671540 -0.117157 -0.466868 -0.829533 -0.306447 20 97 13
0.006468 0.473056 0.048798 -0.466868 -0.829533 -0.306447 20 97 13
-0.237268 0.671540 -0.117157 -0.561558 -0.740801 -0.368601 20 97 13
-0.527159 0.671540 0.324487 -0.561558 -0.740801 -0.368601 20 97 13
-0.781067 0.936930 0.177941 -0.561558 -0.740801 -0.368601 20 97 13
-0.186205 1.689376 0.269231 -0.054620 0.298235 0.952928 20 97 13
-0.404908 2.025964 0.151354 -0.054620 0.298235 0.952928 24 96 13
-0.381649 1.689376 0.258028 -0.054620 0.298235 0.952928 21 97 14
-0.381649 1.689376 0.258028 -0.814423 -0.225699 -0.534579 25 100 18
-0.404908 2.025964 0.151354 -0.814423 -0.225699 -0.534579 26 101 19
-0.274226 1.689376 0.094370 -0.814423 -0.225699 -0.534579 22 98 15
-0.274226 1.689376 0.094370 0.822672 0.389515 -0.414112 49 116 42
-0.404908 2.025964 0.151354 0.822672 0.389515 -0.414112 35 104 25
-0.186205 1.689376 0.269231 0.822672 0.389515 -0.414112 24 100 17
0.035225 1.768237 0.090432 0.000000 0.170434 -0.985369 248 79 30
-0.664581 1.690535 0.076993 0.000000 0.170434 -0.985369 255 46 24
-0.577280 2.110692 0.149665 0.000000 0.170434 -0.985369 254 50 26
-0.577280 2.107198 0.169867 -0.000000 -0.170434 0.985369 255 46 24
-0.286032 1.475391 0.060586 -0.000000 -0.170434 0.985369 255 62 42
0.035225 1.764742 0.110634 -0.000000 -0.170434 0.985369 255 48 26
-0.144776 2.155221 0.178173 0.179676 0.969334 0.167653 255 47 25
0.234540 2.091222 0.141679 0.179676 0.969334 0.167653 255 51 29
-0.144776 2.158715 0.157971 0.179676 0.969334 0.167653 255 46 24
-0.664581 1.687041 0.097194 -0.743473 -0.658982 -0.113979 255 46 24
-0.904532 1.956082 0.106878 -0.743473 -0.658982 -0.113979 255 46 24
-0.664581 1.690535 0.076993 -0.743473 -0.658982 -0.113979 255 46 24
0.035225 1.768237 0.090432 -0.040308 0.213582 -0.976093 248 79 30
0.084043 1.396027 0.006972 -0.040308 0.213582 -0.976093 197 67 30
-0.286032 1.478886 0.040385 -0.040308 0.213582 -0.976093 254 53 25
-0.577280 2.110692 0.149665 0.003426 0.140394 -0.990090 254 50 26
-0.407638 2.540550 0.211205 0.003426 0.140394 -0.990090 255 47 25
-0.144776 2.158715 0.157971 0.003426 0.140394 -0.990090 253 65 35
-0.664581 1.690535 0.076993 -0.976578 -0.212015 -0.036671 255 46 24
-0.574835 1.293915 -0.019943 -0.976578 -0.212015 -0.036671 255 46 24
-0.664581 1.687041 0.097194 -0.976578 -0.212015 -0.036671 255 46 24
-0.286032 1.478886 0.040385 0.044268 0.246624 -0.968100 254 53 25
-0.574835 1.293915 -0.019943 0.044268 0.246624 -0.968100 255 75 56
-0.664581 1.690535 0.076993 0.044268 0.246624 -0.968100 255 46 24
-0.577280 2.107198 0.169867 -0.122305 -0.144426 0.981928 255 46 24
-0.904532 1.956082 0.106878 -0.122305 -0.144426 0.981928 255 46 24
-0.664581 1.687041 0.097194 -0.122305 -0.144426 0.981928 255 46 24
-0.577280 2.110692 0.149665 -0.438436 0.885614 0.153173 255 46 24
-0.904532 1.956082 0.106878 -0.438436 0.885614 0.153173 255 46 24
-0.577280 2.107198 0.169867 -0.438436 0.885614 0.153173 255 46 24
-0.664581 1.690535 0.076993 0.053590 0.159367 -0.985764 255 46 24
-0.904532 1.956082 0.106878 0.053590 0.159367 -0.985764 255 46 24
-0.577280 2.110692 0.149665 0.053590 0.159367 -0.985764 254 50 26
-0.286032 1.475391 0.060586 0.083757 -0.259407 0.962129 255 62 42
0.084043 1.396027 0.006972 0.083757 -0.259407 0.962129 213 61 29
0.035225 1.764742 0.110634 0.083757 -0.259407 0.962129 255 48 26
-0.286032 1.475391 0.060586 0.554722 -0.819862 -0.141810 254 48 24
-0.574835 1.293915 -0.019943 0.554722 -0.819862 -0.141810 255 91 74
-0.286032 1.478886 0.040385 0.554722 -0.819862 -0.141810 254 53 25
-0.664581 1.687041 0.097194 -0.076162 -0.300656 0.950687 255 46 24
-0.574835 1.293915 -0.019943 -0.076162 -0.300656 0.950687 255 46 24
-0.286032 1.475391 0.060586 -0.076162 -0.300656 0.950687 255 62 42
-0.144776 2.158715 0.157971 -0.013082 0.164561 -0.986280 253 65 35
0.234540 2.091222 0.141679 -0.013082 0.164561 -0.986280 255 47 25
0.035225 1.768237 0.090432 -0.013082 0.164561 -0.986280 248 79 30
-0.286032 1.478886 0.040385 -0.229699 -0.959021 -0.165881 255 46 24
0.084043 1.396027 0.006972 -0.229699 -0.959021 -0.165881 52 119 46
-0.286032 1.475391 0.060586 -0.229699 -0.959021 -0.165881 255 62 42
0.035225 1.764742 0.110634 0.991890 0.125237 0.021661 255 47 24
0.084043 1.396027 0.006972 0.991890 0.125237 0.021661 243 51 25
0.035225 1.768237 0.090432 0.991890 0.125237 0.021661 255 46 24
-0.144776 2.158715 0.157971 0.826084 0.555302 0.096043 255 46 24
-0.407638 2.540550 0.211205 0.826084 0.555302 0.096043 255 46 24
-0.144776 2.155221 0.178173 0.826084 0.555302 0.096043 255 46 24
0.035225 1.768237 0.090432 0.853880 -0.512856 -0.088705 255 46 24
0.234540 2.091222 0.141679 0.853880 -0.512856 -0.088705 255 46 24
0.035225 1.764742 0.110634 0.853880 -0.512856 -0.088705 255 47 24
0.035225 1.764742 0.110634 0.071798 -0.137767 0.987859 255 48 26
0.234540 2.091222 0.141679 0.071798 -0.137767 0.987859 255 51 29
-0.144776 2.155221 0.178173 0.071798 -0.137767 0.987859 255 47 25
0.579254 1.059740 0.699446 -0.413996 0.886103 0.208395 20 97 13
1.017129 1.310004 0.505192 -0.413996 0.886103 0.208395 20 97 13
0.350226 1.059740 0.244460 -0.413996 0.886103 0.208395 20 97 13
-0.144776 2.155221 0.178173 -0.008966 -0.091479 0.995767 255 47 25
-0.407638 2.540550 0.211205 -0.008966 -0.091479 0.995767 255 46 24
-0.577280 2.107198 0.169867 -0.008966 -0.091479 0.995767 255 46 24
-0.577280 2.107198 0.169867 -0.931393 0.358690 0.062038 255 46 24
-0.407638 2.540550 0.211205 -0.931393 0.358690 0.062038 255 46 24
-0.577280 2.110692 0.149665 -0.931393 0.358690 0.062038 255 46 24
0.089388 0.959488 0.387864 -0.285269 0.947630 0.143597 20 97 13
0.350226 1.059740 0.244460 -0.285269 0.947630 0.143597 20 97 13
0.001367 0.959488 0.213003 -0.285269 0.947630 0.143597 20 97 13
0.094488 0.946113 0.385297 -0.821487 -0.392637 0.413516 20 97 13
0.001367 0.959488 0.213003 -0.821487 -0.392637 0.413516 255 255 255
0.006468 0.946113 0.210436 -0.821487 -0.392637 0.413516 255 255 255
0.350226 1.059740 0.244460 0.258283 0.276195 -0.925746 20 97 13
1.022229 1.296628 0.502624 0.258283 0.276195 -0.925746 21 98 14
0.355327 1.046365 0.241892 0.258283 0.276195 -0.925746 20 97 13
0.579254 1.059740 0.699446 -0.456749 -0.332556 0.825098 20 97 13
0.094488 0.946113 0.385297 -0.456749 -0.332556 0.825098 20 97 13
0.584355 1.046365 0.696879 -0.456749 -0.332556 0.825098 20 97 13
-0.231156 0.680873 -0.113145 0.466868 0.829533 0.306447 20 97 13
-0.094844 0.482389 0.216468 0.466868 0.829533 0.306447 20 97 13
0.012580 0.482389 0.052810 0.466868 0.829533 0.306447 20 97 13
-0.231156 0.680873 -0.113145 0.561558 0.740801 0.368601 20 97 13
-0.774955 0.946263 0.181953 0.561558 0.740801 0.368601 40 111 33
-0.521047 0.680873 0.328499 0.561558 0.740801 0.368601 20 97 13
0.012580 0.482389 0.052810 0.658099 -0.616691 0.431970 20 97 13
-0.100956 0.473056 0.212457 0.658099 -0.616691 0.431970 20 97 13
0.006468 0.473056 0.048798 0.658099 -0.616691 0.431970 20 97 13
-0.521047 0.680873 0.328499 -0.520179 -0.026294 0.853652 20 97 13
-0.781067 0.936930 0.177941 -0.520179 -0.026294 0.853652 20 97 13
-0.527159 0.671540 0.324487 -0.520179 -0.026294 0.853652 20 97 13
-0.231156 0.680873 -0.113145 0.557947 -0.008679 -0.829831 20 97 13
0.006468 0.473056 0.048798 0.557947 -0.008679 -0.829831 20 97 13
-0.237268 0.671540 -0.117157 0.557947 -0.008679 -0.829831 20 97 13
-0.781067 0.936930 0.177941 -0.211849 0.499774 -0.839849 20 97 13
-0.231156 0.680873 -0.113145 -0.211849 0.499774 -0.839849 20 97 13
-0.237268 0.671540 -0.117157 -0.211849 0.499774 -0.839849 20 97 13
-0.100956 0.473056 0.212457 0.043561 -0.418500 0.907172 20 97 13
-0.521047 0.680873 0.328499 0.043561 -0.418500 0.907172 20 97 13
-0.527159 0.671540 0.324487 0.043561 -0.418500 0.907172 20 97 13
-0.100956 0.000000 0.050819 -0.054159 -0.322860 0.944896 20 97 13
0.094488 0.000000 0.062021 -0.054159 -0.322860 0.944896 20 97 13
-0.100956 0.473056 0.212457 -0.054159 -0.322860 0.944896 20 97 13
-0.100956 0.946113 0.374094 -0.054160 -0.322860 0.944896 20 97 13
0.006468 0.000000 -0.112840 -0.821676 0.184286 -0.539340 20 97 13
-0.100956 0.000000 0.050819 -0.821676 0.184286 -0.539340 20 97 13
-0.100956 0.946113 0.374094 -0.821676 0.184286 -0.539340 20 97 13
0.006468 0.000000 -0.112840 0.882860 0.151849 -0.444409 20 97 13
0.006468 0.946113 0.210436 0.882860 0.151849 -0.444409 20 97 13
-0.381649 1.689376 0.258028 -0.056715 0.133096 0.989479 21 97 14
-0.381649 1.689376 0.258028 -0.775825 -0.372513 -0.509244 25 100 18
-0.274226 1.689376 0.094370 0.862963 0.258064 -0.434393 49 116 42
0.006468 0.946113 0.210436 0.030900 0.199774 -0.979355 20 97 13
0.001367 0.959488 0.213003 0.030900 0.199774 -0.979355 20 97 13
0.350226 1.059740 0.244460 0.030900 0.199774 -0.979355 20 97 13
1.022229 1.296628 0.502624 0.413574 -0.017029 0.910311 20 97 13
1.017129 1.310004 0.505192 0.413574 -0.017029 0.910311 20 97 13
0.579254 1.059740 0.699446 0.413574 -0.017029 0.910311 20 97 13
-0.527159 0.671540 0.324487 -0.466868 -0.829533 -0.306447 20 97 13
-0.144776 2.158715 0.157971 0.000000 0.170434 -0.985369 253 65 35
-0.286032 1.478886 0.040385 0.000000 0.170434 -0.985369 254 53 25
-0.144776 2.155221 0.178173 -0.000000 -0.170434 0.985369 255 47 25
-0.664581 1.687041 0.097194 -0.000000 -0.170434 0.985369 255 46 24
0.579254 1.059740 0.699446 -0.285269 0.947630 0.143597 20 97 13
0.089388 0.959488 0.387864 -0.821487 -0.392637 0.413516 20 97 13
0.350226 1.059740 0.244460 0.258285 0.276192 -0.925747 20 97 13
1.017129 1.310004 0.505192 0.258285 0.276192 -0.925747 23 99 16
1.022229 1.296628 0.502624 0.258285 0.276192 -0.925747 21 98 14
0.579254 1.059740 0.699446 -0.456750 -0.332554 0.825098 20 97 13
0.089388 0.959488 0.387864 -0.456750 -0.332554 0.825098 20 97 13
0.094488 0.946113 0.385297 -0.456750 -0.332554 0.825098 20 97 13
-0.521047 0.680873 0.328499 0.466868 0.829533 0.306447 20 97 13
0.012580 0.482389 0.052810 0.658100 -0.616690 0.431970 20 97 13
-0.094844 0.482389 0.216468 0.658100 -0.616690 0.431970 20 97 13
-0.100956 0.473056 0.212457 0.658100 -0.616690 0.431970 20 97 13
-0.521047 0.680873 0.328499 -0.520180 -0.026295 0.853652 20 97 13
-0.774955 0.946263 0.181953 -0.520180 -0.026295 0.853652 20 97 13
-0.781067 0.936930 0.177941 -0.520180 -0.026295 0.853652 20 97 13
0.012580 0.482389 0.052810 0.557947 -0.008679 -0.829831 20 97 13
-0.781067 0.936930 0.177941 -0.211850 0.499772 -0.839850 20 97 13
-0.774955 0.946263 0.181953 -0.211850 0.499772 -0.839850 20 97 13
-0.231156 0.680873 -0.113145 -0.211850 0.499772 -0.839850 20 97 13
-0.100956 0.473056 0.212457 0.043560 -0.418501 0.907171 20 97 13
-0.094844 0.482389 0.216468 0.043560 -0.418501 0.907171 20 97 13
-0.521047 0.680873 0.328499 0.043560 -0.418501 0.907171 20 97 13
-0.100956 0.000000 0.050819 -0.057224 0.000000 0.998361 20 97 13
0.094488 -0.978012 0.062021 -0.057224 0.000000 0.998361 20 97 13
0.094488 0.000000 0.062021 -0.057224 0.000000 0.998361 20 97 13
0.006468 -0.978012 -0.112840 0.000000 -1.000000 -0.000000 20 97 13
0.094488 -0.978012 0.062021 0.000000 -1.000000 -0.000000 20 97 13
-0.100956 -0.978012 0.050819 0.000000 -1.000000 -0.000000 20 97 13
0.006468 0.000000 -0.112840 -0.835994 -0.000000 -0.548738 20 97 13
-0.100956 -0.978012 0.050819 -0.835994 -0.000000 -0.548738 20 97 13
-0.100956 0.000000 0.050819 -0.835994 -0.000000 -0.548738 20 97 13
0.094488 0.000000 0.062021 0.893218 0.000000 -0.449623 20 97 13
0.006468 -0.978012 -0.112840 0.893218 0.000000 -0.449623 20 97 13
0.006468 0.000000 -0.112840 0.893218 0.000000 -0.449623 20 97 13
-0.100956 -0.978012 0.050819 -0.057224 0.000000 0.998361 20 97 13
0.006468 -0.978012 -0.112840 -0.835994 0.000000 -0.548738 20 97 13
0.094488 -0.978012 0.062021 0.893218 0.000000 -0.449623 20 97 13
3 0 1 2
3 3 4 5
3 6 7 8
3 9 10 11
3 12 13 14
3 15 16 17
3 18 19 20
3 21 22 23
3 24 25 26
3 27 28 29
3 30 31 32
3 33 34 35
3 36 37 38
3 39 40 41
3 42 43 44
3 45 46 47
3 48 49 50
3 51 52 53
3 54 55 56
3 57 58 59
3 60 61 62
3 63 64 65
3 66 67 68
3 69 70 71
3 72 73 74
3 75 76 77
3 78 79 80
3 81 82 83
3 84 85 86
3 87 88 89
3 90 91 92
3 93 94 95
3 96 97 98
3 99 100 101
3 102 103 104
3 105 106 107
3 108 109 110
3 111 112 113
3 114 115 116
3 117 118 119
3 120 121 122
3 123 124 125
3 126 127 128
3 129 130 131
3 132 133 134
3 135 136 137
3 138 139 140
3 141 142 143
3 0 144 1
3 145 146 5
3 3 147 4
3 5 146 3
3 8 148 6
3 6 149 7
3 9 150 10
3 12 151 13
3 15 152 16
3 153 154 155
3 156 157 158
3 24 159 25
3 41 160 39
3 39 161 40
3 44 162 42
3 42 163 43
3 108 164 109
3 111 165 112
3 166 167 168
3 169 170 171
3 120 172 121
3 173 174 175
3 176 177 178
3 132 179 133
3 180 181 182
3 183 184 185
3 186 187 188
3 189 190 191
3 192 193 194
3 195 196 197
3 186 198 187
3 192 199 193
3 195 200 196
