ply
format ascii 1.0
comment Created by Blender 2.79 (sub 0) - www.blender.org, source file: 'brick_house.blend'
element vertex 152
property float x
property float y
property float z
property float nx
property float ny
property float nz
property float s
property float t
element face 102
property list uchar uint vertex_indices
end_header
-0.639756 1.005167 -4.454659 0.000000 0.000000 -1.000000 -1.369893 0.459878
-0.604141 0.605632 -4.454659 0.000000 0.000000 -1.000000 -1.344579 0.756205
-0.715310 0.605632 -4.454659 0.000000 0.000000 -1.000000 -1.423594 0.756205
0.639756 1.005167 -3.575684 0.000000 -0.000000 1.000000 0.452073 1.083916
0.604141 0.595898 -3.575684 0.000000 -0.000000 1.000000 0.742960 1.057502
0.715310 0.605632 -3.575684 0.000000 -0.000000 1.000000 0.736042 1.139953
-0.604141 1.998065 -4.454659 0.000000 0.000000 -1.000000 -1.344579 -0.276533
0.604141 0.605632 -4.454659 0.000000 0.000000 -1.000000 -0.485761 0.756205
0.639756 1.005167 -4.454659 0.000000 1.000000 0.000000 0.315472 1.652275
0.604141 1.005167 -3.575684 0.000000 1.000000 0.000000 0.340786 2.304192
0.639756 1.005167 -3.575684 0.000000 1.000000 0.000000 0.315472 2.304192
-0.639756 1.005167 -4.454659 0.000000 1.000000 -0.000000 0.309324 0.756117
-0.604141 1.005167 -3.575684 0.000000 1.000000 -0.000000 0.284010 1.408035
-0.604141 1.005167 -4.454659 0.000000 1.000000 -0.000000 0.284010 0.756117
-0.604141 1.005167 -3.575684 1.000000 0.000000 -0.000000 2.358883 1.407656
-0.604141 0.595898 -3.575684 1.000000 0.000000 -0.000000 2.068047 1.407656
-0.604141 0.605632 -4.137033 1.000000 0.000000 -0.000000 2.074963 0.991316
0.639756 1.005167 -4.454659 -0.000000 0.000000 -1.000000 -0.460447 0.459878
0.715310 0.605632 -4.454659 -0.000000 0.000000 -1.000000 -0.406745 0.756205
-0.604141 0.595898 -3.575684 -0.000000 0.000000 1.000000 0.742959 0.161344
-0.639756 1.005167 -3.575684 -0.000000 0.000000 1.000000 0.452073 0.134930
-0.715310 0.605632 -3.575684 -0.000000 0.000000 1.000000 0.736041 0.078893
-0.639756 1.005167 -3.575684 -0.982586 0.185811 0.000000 -1.423594 1.296343
-0.715310 0.605632 -4.454659 -0.982586 0.185811 0.000000 -0.798841 1.593765
-0.715310 0.605632 -3.575684 -0.982586 0.185811 0.000000 -1.423594 1.593765
0.639756 1.005167 -4.454659 0.982586 0.185811 -0.000000 0.452073 1.139953
0.715310 0.605632 -3.575684 0.982586 0.185811 -0.000000 1.076827 1.437376
0.715310 0.605632 -4.454659 0.982586 0.185811 -0.000000 0.452073 1.437376
0.604141 1.005167 -4.454659 -1.000000 0.000000 0.000000 2.132758 1.651896
0.604141 0.605632 -4.454659 -1.000000 0.000000 0.000000 2.416677 1.651896
0.604141 0.605632 -4.137033 -1.000000 0.000000 0.000000 2.416677 1.887473
0.604141 3.544274 -4.137033 0.000000 -0.000000 1.000000 -0.406745 -1.423323
-0.604141 1.998065 -4.137033 0.000000 -0.000000 1.000000 0.452073 -0.276579
0.604141 1.998065 -4.137033 0.000000 -0.000000 1.000000 -0.406745 -0.276579
-0.604141 1.998065 -4.137033 -1.000000 0.000000 0.000000 2.145074 -0.390806
-0.604141 0.605632 -4.454659 -1.000000 0.000000 0.000000 1.919312 -1.423323
-0.604141 0.605632 -4.137033 -1.000000 0.000000 0.000000 2.145074 -1.423323
-0.604141 0.605632 -4.137033 0.000000 -0.000000 1.000000 0.452073 0.756117
0.604141 0.605632 -4.137033 0.000000 -0.000000 1.000000 -0.406745 0.756117
0.604141 1.998065 -4.454659 1.000000 -0.000000 0.000000 1.693551 -0.276778
0.604141 0.605632 -4.137033 1.000000 -0.000000 0.000000 1.919312 0.755739
0.604141 0.605632 -4.454659 1.000000 -0.000000 0.000000 1.693551 0.755739
0.604141 0.622887 -3.575684 0.000000 -0.000000 1.000000 2.281669 0.368992
-0.604141 0.595898 -3.575684 0.000000 -0.000000 1.000000 2.300851 -0.527165
0.604141 0.595898 -3.575684 0.000000 -0.000000 1.000000 2.300851 0.368992
-0.604141 0.815072 -3.610149 0.000000 0.000000 -1.000000 0.452073 0.756117
0.604141 0.622887 -3.610149 0.000000 0.000000 -1.000000 0.315472 1.652275
-0.604141 0.622887 -3.610149 0.000000 0.000000 -1.000000 0.315472 0.756117
0.604141 0.622887 -4.137033 1.000000 -0.000000 0.000000 1.096006 1.139953
0.604141 0.622887 -3.610149 1.000000 -0.000000 0.000000 1.096006 1.530731
0.604141 0.605632 -4.137033 1.000000 -0.000000 0.000000 1.083744 1.139953
-0.604141 0.622887 -4.137033 0.000000 0.000000 -1.000000 1.685778 0.078893
0.604141 0.605632 -4.137033 0.000000 0.000000 -1.000000 1.673513 0.975051
-0.604141 0.605632 -4.137033 0.000000 0.000000 -1.000000 1.673513 0.078893
-0.604141 0.622887 -3.575684 -1.000000 0.000000 0.000000 1.213398 1.972633
-0.604141 0.622887 -3.610149 -1.000000 0.000000 0.000000 1.213398 1.947071
-0.604141 0.595898 -3.575684 -1.000000 0.000000 0.000000 1.232577 1.972633
0.604141 0.815072 -3.610149 0.000000 1.000000 0.000000 2.325348 -0.527165
-0.604141 0.815072 -3.575684 0.000000 1.000000 0.000000 2.300851 0.368992
0.604141 0.815072 -3.575684 0.000000 1.000000 0.000000 2.300851 -0.527165
-0.604141 0.815072 -3.575684 -1.000000 0.000000 0.000000 1.076827 1.972633
0.604141 0.815072 -3.575684 0.000000 -0.000000 1.000000 2.145074 0.368992
-0.604141 0.622887 -3.575684 0.000000 -0.000000 1.000000 2.281669 -0.527165
0.604141 0.815072 -3.610149 1.000000 -0.000000 0.000000 1.232577 1.530731
0.604141 0.622887 -3.575684 1.000000 -0.000000 0.000000 1.096006 1.556293
-0.604141 0.622887 -3.610149 0.000000 1.000000 -0.000000 1.693550 1.651897
0.604141 0.622887 -4.137033 0.000000 1.000000 -0.000000 2.068046 0.755739
-0.604141 0.622887 -4.137033 0.000000 1.000000 -0.000000 2.068046 1.651896
0.715310 0.066665 -4.454659 -0.000000 -0.000000 -1.000000 -0.406745 1.155944
-0.715310 0.066665 -3.575684 0.000000 0.000000 1.000000 1.119110 0.078893
-0.715310 0.066665 -4.454659 -1.000000 -0.000000 0.000000 -0.798841 1.993419
-0.715310 0.605632 -3.575684 -1.000000 -0.000000 0.000000 -1.423594 1.593765
-0.715310 0.605632 -4.454659 -1.000000 -0.000000 0.000000 -0.798841 1.593765
0.715310 0.066665 -3.575684 1.000000 0.000000 0.000000 1.076827 1.837030
0.715310 0.605632 -4.454659 1.000000 0.000000 0.000000 0.452073 1.437376
0.715310 0.605632 -3.575684 1.000000 0.000000 0.000000 1.076827 1.437376
0.604141 0.066665 -4.454659 -0.000000 -0.000000 -1.000000 -0.485761 1.155944
0.604141 0.066665 -4.077152 0.000000 1.000000 0.000000 0.306118 1.527709
-0.604141 0.066665 -3.575684 0.000000 1.000000 0.000000 -0.050314 2.423866
0.604141 0.066665 -3.575684 0.000000 1.000000 0.000000 -0.050314 1.527709
0.715310 0.066665 -3.575684 0.000000 0.000000 1.000000 1.119110 1.139953
-0.604141 0.066665 -4.454659 -0.000000 -0.000000 -1.000000 -1.344579 1.155944
-0.604141 0.066665 -4.077152 -0.000000 0.000000 1.000000 -0.422690 1.296343
0.604141 0.595898 -4.077152 -0.000000 0.000000 1.000000 -0.798840 2.192500
-0.604141 0.595898 -4.077152 -0.000000 0.000000 1.000000 -0.798841 1.296343
-0.604141 0.066665 -4.077152 1.000000 -0.000000 0.000000 0.452073 2.369835
-0.604141 0.595898 -3.575684 1.000000 -0.000000 0.000000 0.808504 1.977398
-0.604141 0.066665 -3.575684 1.000000 -0.000000 0.000000 0.808504 2.369835
-0.604141 0.595898 -4.077152 0.000000 -1.000000 -0.000000 -0.406745 2.423866
0.604141 0.595898 -3.575684 0.000000 -1.000000 -0.000000 -0.050314 1.527709
-0.604141 0.595898 -3.575684 0.000000 -1.000000 -0.000000 -0.050314 2.423866
0.604141 0.595898 -4.077152 -1.000000 -0.000000 -0.000000 1.164936 1.977398
0.604141 0.066665 -3.575684 -1.000000 -0.000000 -0.000000 0.808504 2.369835
0.604141 0.595898 -3.575684 -1.000000 -0.000000 -0.000000 0.808504 1.977399
0.715310 -0.122633 -3.575684 1.000000 0.000000 0.000000 1.076827 1.977398
0.715310 0.066665 -4.454659 1.000000 0.000000 0.000000 0.452073 1.837030
0.604141 -0.122633 -4.454659 -0.000000 -0.000000 -1.000000 -0.485761 1.296342
-0.604141 -0.122633 -3.575684 -0.000000 0.000000 1.000000 1.253653 0.161344
0.604141 0.066665 -3.575684 -0.000000 0.000000 1.000000 1.119110 1.057502
-0.604141 0.066665 -3.575684 -0.000000 0.000000 1.000000 1.119110 0.161344
0.604141 -0.122633 -3.575684 -0.000000 0.000000 1.000000 1.253653 1.057502
-0.604141 -0.122633 -4.454659 -0.000000 -0.000000 -1.000000 -1.344579 1.296343
-0.715310 0.066665 -4.454659 -0.000000 -0.000000 -1.000000 -1.423594 1.155944
0.715310 -0.122633 -4.454659 -0.000000 -0.000000 -1.000000 -0.406745 1.296342
-0.715310 -0.122633 -3.575684 -0.000000 0.000000 1.000000 1.253653 0.078893
-0.715310 -0.122633 -4.454659 -1.000000 -0.000000 0.000000 -0.798841 2.133788
-0.715310 0.066665 -3.575684 -1.000000 -0.000000 0.000000 -1.423594 1.993419
-0.604141 3.544274 -4.454659 0.000000 1.000000 -0.000000 2.370835 -0.527165
0.604141 3.544274 -4.137033 0.000000 1.000000 -0.000000 2.145074 -1.423323
0.604141 3.544274 -4.454659 0.000000 1.000000 -0.000000 2.370835 -1.423323
-0.604141 3.544274 -4.137033 -1.000000 0.000000 0.000000 2.145074 0.755738
-0.604141 1.998065 -4.454659 -1.000000 0.000000 0.000000 1.919312 -0.390806
0.604141 3.544274 -4.454659 1.000000 -0.000000 0.000000 1.693550 -1.423323
0.604141 1.998065 -4.137033 1.000000 -0.000000 0.000000 1.919312 -0.276778
-0.604141 3.544274 -4.454659 0.000000 0.000000 -1.000000 -1.344579 -1.423323
0.604141 1.998065 -4.454659 0.000000 0.000000 -1.000000 -0.485761 -0.276533
-0.604141 1.005167 -4.454659 0.000000 0.000000 -1.000000 -1.344579 0.459878
0.604141 1.005167 -3.575684 0.000000 0.000000 1.000000 0.452073 1.057502
0.604141 1.005167 -4.454659 -0.000000 1.000000 0.000000 0.340786 1.652275
-0.639756 1.005167 -3.575684 0.000000 1.000000 0.000000 0.309324 1.408035
-0.604141 0.605632 -4.454659 1.000000 0.000000 -0.000000 2.074963 0.755739
-0.604141 1.005167 -4.454659 1.000000 0.000000 -0.000000 2.358883 0.755739
0.604141 1.005167 -4.454659 -0.000000 -0.000000 -1.000000 -0.485761 0.459878
-0.604141 1.005167 -3.575684 -0.000000 0.000000 1.000000 0.452073 0.161344
-0.639756 1.005167 -4.454659 -0.982586 0.185811 0.000000 -0.798841 1.296343
0.639756 1.005167 -3.575684 0.982586 0.185811 0.000000 1.076827 1.139953
0.604141 0.595898 -3.575684 -1.000000 -0.000000 -0.000000 2.423594 2.303813
0.604141 1.005167 -3.575684 -1.000000 -0.000000 -0.000000 2.132758 2.303813
-0.604141 3.544274 -4.137033 0.000000 0.000000 1.000000 0.452073 -1.423323
0.604141 0.815072 -3.610149 0.000000 0.000000 -1.000000 0.452073 1.652275
0.604141 0.595898 -3.575684 1.000000 0.000000 0.000000 1.076827 1.556293
0.604141 0.622887 -4.137033 0.000000 0.000000 -1.000000 1.685778 0.975051
-0.604141 0.605632 -4.137033 -1.000000 -0.000000 -0.000000 1.225660 1.556293
-0.604141 0.622887 -4.137033 -1.000000 0.000000 0.000000 1.213398 1.556293
-0.604141 0.815072 -3.610149 -0.000000 1.000000 0.000000 2.325348 0.368992
-0.604141 0.815072 -3.610149 -1.000000 0.000000 0.000000 1.076827 1.947071
-0.604141 0.815072 -3.575684 0.000000 0.000000 1.000000 2.145074 -0.527165
0.604141 0.815072 -3.575684 1.000000 -0.000000 0.000000 1.232577 1.556293
0.604141 0.622887 -3.610149 0.000000 1.000000 -0.000000 1.693550 0.755739
-0.604141 0.066665 -4.077152 -0.000000 1.000000 0.000000 0.306118 2.423866
0.604141 0.066665 -4.077152 0.000000 0.000000 1.000000 -0.422690 2.192500
-0.604141 0.595898 -4.077152 1.000000 0.000000 0.000000 0.452073 1.977399
0.604141 0.595898 -4.077152 -0.000000 -1.000000 -0.000000 -0.406745 1.527709
0.604141 0.066665 -4.077152 -1.000000 0.000000 0.000000 1.164936 2.369835
0.715310 -0.122633 -4.454659 1.000000 0.000000 -0.000000 0.452073 1.977399
0.715310 -0.122633 -3.575684 0.000000 0.000000 1.000000 1.253653 1.139953
-0.715310 -0.122633 -4.454659 0.000000 0.000000 -1.000000 -1.423594 1.296343
-0.715310 -0.122633 -3.575684 -1.000000 -0.000000 -0.000000 -1.423594 2.133788
-0.604141 3.544274 -4.137033 0.000000 1.000000 0.000000 2.145074 -0.527165
-0.604141 3.544274 -4.454659 -1.000000 0.000000 0.000000 1.919313 0.755738
0.604141 3.544274 -4.137033 1.000000 -0.000000 0.000000 1.919311 -1.423323
0.604141 3.544274 -4.454659 0.000000 0.000000 -1.000000 -0.485761 -1.423323
3 0 1 2
3 3 4 5
3 6 7 1
3 8 9 10
3 11 12 13
3 14 15 16
3 7 17 18
3 19 20 21
3 22 23 24
3 25 26 27
3 28 29 30
3 31 32 33
3 34 35 36
3 33 37 38
3 39 40 41
3 42 43 44
3 45 46 47
3 48 49 50
3 51 52 53
3 54 55 56
3 57 58 59
3 60 55 54
3 61 62 42
3 63 64 49
3 65 66 67
3 68 7 18
3 69 19 21
3 70 71 72
3 73 74 75
3 76 1 7
3 77 78 79
3 4 80 5
3 81 2 1
3 82 83 84
3 85 86 87
3 88 89 90
3 91 92 93
3 94 95 73
3 96 81 76
3 97 98 99
3 100 80 98
3 101 102 81
3 103 76 68
3 104 99 69
3 105 106 70
3 107 108 109
3 110 111 34
3 112 113 39
3 114 115 6
3 0 116 1
3 3 117 4
3 6 115 7
3 8 118 9
3 11 119 12
3 16 120 121
3 121 14 16
3 7 122 17
3 19 123 20
3 22 124 23
3 25 125 26
3 30 126 127
3 127 28 30
3 31 128 32
3 34 111 35
3 33 32 37
3 39 113 40
3 42 62 43
3 45 129 46
3 130 50 49
3 49 64 130
3 51 131 52
3 132 56 55
3 55 133 132
3 57 134 58
3 60 135 55
3 61 136 62
3 63 137 64
3 65 138 66
3 68 76 7
3 69 99 19
3 70 106 71
3 73 95 74
3 76 81 1
3 77 139 78
3 4 98 80
3 81 102 2
3 82 140 83
3 85 141 86
3 88 142 89
3 91 143 92
3 94 144 95
3 96 101 81
3 97 100 98
3 100 145 80
3 101 146 102
3 103 96 76
3 104 97 99
3 105 147 106
3 107 148 108
3 110 149 111
3 112 150 113
3 114 151 115
