ply
format ascii 1.0
comment Created by Blender 2.78 (sub 0) - www.blender.org, source file: ''
element vertex 291
property float x
property float y
property float z
property float nx
property float ny
property float nz
property float s
property float t
property uchar red
property uchar green
property uchar blue
element face 126
property list uchar uint vertex_indices
end_header
0.077388 0.000000 -0.238176 0.309009 0.007262 -0.951031 0.904371 0.717676 54 28 17
-0.095657 0.000000 -0.294402 0.309009 0.007262 -0.951031 0.912139 0.717676 56 30 19
-0.064328 8.293507 -0.220894 0.309009 0.007262 -0.951031 0.909897 0.366551 54 28 16
0.058776 8.293507 -0.180895 0.309009 0.007262 -0.951031 0.904370 0.366551 54 28 16
0.181881 8.293507 -0.140896 0.309009 0.007262 -0.951031 0.898844 0.366551 54 28 16
-0.309552 0.000000 -0.000000 -0.808977 0.009889 0.587757 0.849994 0.717715 54 28 16
-0.095657 0.000000 0.294402 -0.808977 0.009889 0.587757 0.865530 0.717715 55 29 17
-0.064328 8.293507 0.197982 -0.808977 0.009889 0.587757 0.862986 0.366708 54 28 16
-0.095657 0.000000 -0.294402 -0.808989 0.008265 -0.587765 0.881066 0.717689 56 31 19
-0.309552 0.000000 -0.000000 -0.808989 0.008265 -0.587765 0.896602 0.717689 54 28 16
-0.216494 8.293507 -0.011456 -0.808989 0.008265 -0.587765 0.893871 0.366605 54 28 16
0.250433 0.000000 0.181950 0.309002 0.009889 0.951010 0.292672 0.726003 55 29 17
0.181881 8.293507 0.117984 0.309002 0.009889 0.951010 0.290732 0.374996 54 28 16
-0.064328 8.293507 0.197982 0.309002 0.009889 0.951010 0.279679 0.374996 58 32 20
0.645513 4.466976 -2.828176 0.244817 0.919685 -0.306991 0.119048 0.596939 5 54 9
-0.000000 5.582854 -0.000000 0.244817 0.919685 -0.306991 0.104877 0.716705 28 54 11
2.613628 4.466976 -1.258656 0.244817 0.919685 -0.306991 0.024748 0.643113 28 54 11
2.008753 3.251046 -2.518898 0.353771 0.919685 -0.170367 0.774315 0.825108 5 54 9
0.000000 4.490357 0.000000 0.353771 0.919685 -0.170367 0.732168 0.705582 7 54 9
3.221790 3.251046 -0.000000 0.353771 0.919685 -0.170367 0.847690 0.732700 5 54 9
-3.516915 2.015965 -0.000000 -0.341458 0.925401 -0.164437 0.277135 0.514108 5 54 9
-0.000000 3.313648 -0.000000 -0.341458 0.925401 -0.164437 0.132526 0.447471 28 54 11
-2.192760 2.015965 -2.749635 -0.341458 0.925401 -0.164437 0.277135 0.385699 25 54 10
-1.808686 4.466976 -2.268021 -0.087374 0.919685 -0.382811 0.211889 0.643113 11 54 9
-0.000000 5.582854 -0.000000 -0.087374 0.919685 -0.382811 0.104877 0.716705 9 54 9
0.645513 4.466976 -2.828176 -0.087374 0.919685 -0.382811 0.119048 0.596939 5 54 9
-0.716916 3.251046 -3.141013 0.087374 0.919685 -0.382811 0.658972 0.825108 14 54 9
0.000000 4.490357 0.000000 0.087374 0.919685 -0.382811 0.732168 0.705582 5 54 9
2.008753 3.251046 -2.518898 0.087374 0.919685 -0.382811 0.774315 0.825108 5 54 9
-2.192760 2.015965 -2.749635 -0.084333 0.925401 -0.369487 0.277135 0.385699 25 54 10
-0.000000 3.313648 -0.000000 -0.084333 0.925401 -0.369487 0.132526 0.447471 28 54 11
0.782587 2.015965 -3.428738 -0.084333 0.925401 -0.369487 0.178227 0.308406 28 54 11
2.613627 4.466976 1.258657 0.244817 0.919685 0.306991 0.000000 0.746867 17 54 10
-0.000000 5.582854 -0.000000 0.244817 0.919685 0.306991 0.104877 0.716705 13 54 9
0.645513 4.466976 2.828176 0.244817 0.919685 0.306991 0.063439 0.830071 28 54 11
-2.902732 3.251046 -1.397882 -0.244817 0.919685 -0.306991 0.588515 0.732700 7 54 9
0.000000 4.490357 0.000000 -0.244817 0.919685 -0.306991 0.732168 0.705582 15 63 19
-0.716916 3.251046 -3.141013 -0.244817 0.919685 -0.306991 0.658972 0.825108 14 54 9
0.782587 2.015965 -3.428738 0.236296 0.925401 -0.296306 0.178227 0.308406 28 54 11
-0.000000 3.313648 -0.000000 0.236296 0.925401 -0.296306 0.132526 0.447471 5 54 9
3.168631 2.015965 -1.525932 0.236296 0.925401 -0.296306 0.054890 0.340433 28 55 12
0.645513 4.466976 2.828176 -0.087374 0.919685 0.382811 0.063439 0.830071 28 54 11
-0.000000 5.582854 -0.000000 -0.087374 0.919685 0.382811 0.104877 0.716705 24 54 11
-1.808686 4.466976 2.268021 -0.087374 0.919685 0.382811 0.167295 0.830071 26 54 11
-2.902733 3.251046 1.397882 -0.392656 0.919685 -0.000000 0.616001 0.617470 21 54 11
0.000000 4.490357 0.000000 -0.392656 0.919685 -0.000000 0.732168 0.705582 9 54 9
-2.902732 3.251046 -1.397882 -0.392656 0.919685 -0.000000 0.588515 0.732700 7 54 9
3.168631 2.015965 -1.525932 0.378989 0.925401 0.000000 0.054890 0.340433 28 54 11
-0.000000 3.313648 -0.000000 0.378989 0.925401 0.000000 0.132526 0.447471 5 54 9
3.168631 2.015965 1.525932 0.378989 0.925401 0.000000 0.000000 0.457663 11 54 9
-1.808686 4.466976 2.268021 -0.353771 0.919685 0.170367 0.167295 0.830071 6 54 9
-0.000000 5.582854 -0.000000 -0.353771 0.919685 0.170367 0.104877 0.716705 24 54 11
-2.900908 4.466976 -0.000000 -0.353771 0.919685 0.170367 0.233361 0.746867 5 54 9
-0.716915 3.251046 3.141013 -0.244817 0.919685 0.306991 0.720731 0.566188 27 54 11
0.000000 4.490357 0.000000 -0.244817 0.919685 0.306991 0.732168 0.705582 13 57 13
-2.902733 3.251046 1.397882 -0.244817 0.919685 0.306991 0.616001 0.617470 21 54 11
3.168631 2.015965 1.525932 0.236296 0.925401 0.296306 0.000000 0.457663 11 54 9
-0.000000 3.313648 -0.000000 0.236296 0.925401 0.296306 0.132526 0.447471 5 54 9
0.782587 2.015965 3.428738 0.236296 0.925401 0.296306 0.054890 0.571818 5 54 9
2.008754 3.251046 2.518896 0.087374 0.919685 0.382812 0.823843 0.617470 13 54 9
0.000000 4.490357 0.000000 0.087374 0.919685 0.382812 0.732168 0.705582 8 54 9
-0.716915 3.251046 3.141013 0.087374 0.919685 0.382812 0.720731 0.566188 27 54 11
3.221790 3.251046 -0.000000 0.353771 0.919685 0.170367 0.847690 0.732700 5 54 9
0.000000 4.490357 0.000000 0.353771 0.919685 0.170367 0.732168 0.705582 7 54 9
2.008754 3.251046 2.518896 0.353771 0.919685 0.170367 0.823843 0.617470 13 54 9
0.782587 2.015965 3.428738 -0.084333 0.925401 0.369487 0.054890 0.571818 5 54 9
-0.000000 3.313648 -0.000000 -0.084333 0.925401 0.369487 0.132526 0.447471 12 60 16
-2.192760 2.015965 2.749635 -0.084333 0.925401 0.369487 0.178227 0.596939 11 54 9
2.613628 4.466976 -1.258656 0.392656 0.919685 0.000000 0.024748 0.643113 28 54 11
-0.000000 5.582854 -0.000000 0.392656 0.919685 0.000000 0.104877 0.716705 28 54 11
2.613627 4.466976 1.258657 0.392656 0.919685 0.000000 0.000000 0.746867 17 54 10
2.008754 3.251046 2.518896 0.000000 -1.000000 0.000000 0.640304 0.539839 5 54 9
-2.902732 3.251046 -1.397882 0.000000 -1.000000 0.000000 0.756673 0.300118 5 54 9
-0.716916 3.251046 -3.141013 0.000000 -1.000000 0.000000 0.849994 0.373947 8 56 12
-2.192760 2.015965 2.749635 -0.341458 0.925401 0.164437 0.178227 0.596939 11 54 9
-0.000000 3.313648 -0.000000 -0.341458 0.925401 0.164437 0.132526 0.447471 5 54 9
-3.516915 2.015965 -0.000000 -0.341458 0.925401 0.164437 0.277135 0.514108 5 54 9
-2.192760 2.015965 -2.749635 0.000000 -1.000000 -0.000000 0.303084 0.445340 5 54 9
3.168631 2.015965 1.525932 0.000000 -1.000000 -0.000000 0.588515 0.380710 5 54 9
0.782587 2.015965 3.428738 0.000000 -1.000000 -0.000000 0.588515 0.509969 5 54 9
-2.900908 4.466976 -0.000000 -0.353771 0.919685 -0.170367 0.233361 0.746867 5 54 9
-0.000000 5.582854 -0.000000 -0.353771 0.919685 -0.170367 0.104877 0.716705 21 54 10
-1.808686 4.466976 -2.268021 -0.353771 0.919685 -0.170367 0.211889 0.643113 11 54 9
-1.808686 4.466976 -2.268021 0.000000 -1.000000 -0.000000 0.454494 0.830131 5 54 9
2.613628 4.466976 -1.258656 0.000000 -1.000000 -0.000000 0.303084 0.710346 6 54 9
0.645513 4.466976 2.828176 0.000000 -1.000000 -0.000000 0.454494 0.590561 5 54 9
-0.545965 5.574122 2.392030 -0.254194 0.913118 0.318749 0.903315 0.000000 16 54 10
0.000000 6.561112 0.000000 -0.254194 0.913118 0.318749 0.912499 0.106266 28 54 11
-2.210567 5.574122 1.064553 -0.254194 0.913118 0.318749 0.823558 0.039054 5 54 9
1.529760 5.574122 1.918259 0.090721 0.913118 0.397473 0.981839 0.039054 28 54 11
0.000000 6.561112 0.000000 0.090721 0.913118 0.397473 0.912499 0.106266 5 54 9
-0.545965 5.574122 2.392030 0.090721 0.913118 0.397473 0.903315 0.000000 16 54 10
-2.210567 5.574122 -1.064553 -0.254194 0.913118 -0.318749 0.802626 0.126807 28 54 11
0.000000 6.561112 0.000000 -0.254194 0.913118 -0.318749 0.912499 0.106266 16 54 10
-0.545965 5.574122 -2.392029 -0.254194 0.913118 -0.318749 0.856282 0.197179 5 54 9
-0.545965 5.574122 -2.392029 0.090721 0.913118 -0.397474 0.856282 0.197179 5 54 9
0.000000 6.561112 0.000000 0.090721 0.913118 -0.397474 0.912499 0.106266 28 54 11
1.529760 5.574122 -1.918259 0.090721 0.913118 -0.397474 0.944122 0.197179 28 54 11
1.529760 5.574122 -1.918259 0.367321 0.913118 -0.176892 0.944122 0.197179 5 54 9
0.000000 6.561112 0.000000 0.367321 0.913118 -0.176892 0.912499 0.106266 28 54 11
2.453545 5.574122 0.000000 0.367321 0.913118 -0.176892 1.000000 0.126807 27 54 11
-2.210567 5.574122 1.064553 -0.407695 0.913118 -0.000000 0.823558 0.039054 5 54 9
0.000000 6.561112 0.000000 -0.407695 0.913118 -0.000000 0.912499 0.106266 28 54 11
-2.210567 5.574122 -1.064553 -0.407695 0.913118 -0.000000 0.802626 0.126807 28 54 11
2.453545 5.574122 0.000000 0.367321 0.913118 0.176892 1.000000 0.126807 27 54 11
0.000000 6.561112 0.000000 0.367321 0.913118 0.176892 0.912499 0.106266 28 54 11
1.529760 5.574122 1.918259 0.367321 0.913118 0.176892 0.981839 0.039054 28 54 11
1.529760 5.574122 1.918259 0.000000 -1.000000 0.000000 0.731558 0.000000 5 54 9
-2.210567 5.574122 1.064553 0.000000 -1.000000 0.000000 0.802626 0.146401 32 76 36
-0.545965 5.574122 -2.392029 0.000000 -1.000000 0.000000 0.642938 0.182559 5 54 9
0.471241 6.496421 -2.064642 0.254194 0.913118 -0.318749 0.793442 0.840234 5 54 9
0.000000 7.348326 -0.000000 0.254194 0.913118 -0.318749 0.839471 0.915443 28 54 11
1.908016 6.496421 -0.918852 0.254194 0.913118 -0.318749 0.760389 0.908974 28 54 11
-1.320388 6.496421 -1.655715 -0.090721 0.913118 -0.397473 0.867710 0.825108 27 54 11
0.000000 7.348326 -0.000000 -0.090721 0.913118 -0.397473 0.839471 0.915443 28 54 11
0.471241 6.496421 -2.064642 -0.090721 0.913118 -0.397473 0.793442 0.840234 5 54 9
1.908016 6.496421 0.918852 0.254194 0.913118 0.318749 0.793442 0.979564 28 54 11
0.000000 7.348326 -0.000000 0.254194 0.913118 0.318749 0.839471 0.915443 28 54 11
0.471241 6.496421 2.064642 0.254194 0.913118 0.318749 0.867710 0.998850 8 54 9
0.471241 6.496421 2.064642 -0.090721 0.913118 0.397473 0.867710 0.998850 19 54 9
0.000000 7.348326 -0.000000 -0.090721 0.913118 0.397473 0.839471 0.915443 28 54 11
-1.320388 6.496421 1.655715 -0.090721 0.913118 0.397473 0.927269 0.952308 28 54 11
-1.320388 6.496421 1.655715 -0.367321 0.913118 0.176892 0.927269 0.952308 28 54 11
0.000000 7.348326 -0.000000 -0.367321 0.913118 0.176892 0.839471 0.915443 28 54 11
-2.117738 6.496421 -0.000000 -0.367321 0.913118 0.176892 0.927269 0.874985 22 54 10
1.908016 6.496421 -0.918852 0.407695 0.913118 0.000000 0.760389 0.908974 28 54 11
0.000000 7.348326 -0.000000 0.407695 0.913118 0.000000 0.839471 0.915443 28 54 11
1.908016 6.496421 0.918852 0.407695 0.913118 0.000000 0.793442 0.979564 28 54 11
-2.117738 6.496421 -0.000000 -0.367321 0.913118 -0.176892 0.927269 0.874985 21 54 10
0.000000 7.348326 -0.000000 -0.367321 0.913118 -0.176892 0.839471 0.915443 28 54 11
-1.320388 6.496421 -1.655715 -0.367321 0.913118 -0.176892 0.867710 0.825108 27 54 11
-1.320388 6.496421 -1.655715 0.000000 -1.000000 -0.000000 0.699048 0.825108 5 54 9
1.908016 6.496421 -0.918852 0.000000 -1.000000 -0.000000 0.760389 0.951471 5 54 9
-1.320388 6.496421 1.655715 0.000000 -1.000000 -0.000000 0.588515 0.912554 5 54 9
-0.402657 7.449580 1.764159 -0.254194 0.913118 0.318749 0.237959 0.979510 6 54 9
0.000000 8.177500 0.000000 -0.254194 0.913118 0.318749 0.213176 0.904790 28 54 11
-1.630327 7.449580 0.785125 -0.254194 0.913118 0.318749 0.288514 0.938043 28 54 11
1.128222 7.449580 1.414746 0.090721 0.913118 0.397473 0.174916 0.964710 5 54 9
0.000000 8.177500 0.000000 0.090721 0.913118 0.397473 0.213176 0.904790 28 54 11
-0.402657 7.449580 1.764159 0.090721 0.913118 0.397473 0.237959 0.979510 6 54 9
-1.630328 7.449580 -0.785124 -0.254194 0.913118 -0.318749 0.288514 0.871537 24 54 10
0.000000 8.177500 0.000000 -0.254194 0.913118 -0.318749 0.213176 0.904790 28 54 11
-0.402658 7.449580 -1.764158 -0.254194 0.913118 -0.318749 0.237959 0.830071 5 54 9
-0.402658 7.449580 -1.764158 0.090721 0.913118 -0.397474 0.237959 0.830071 5 54 9
0.000000 8.177500 0.000000 0.090721 0.913118 -0.397474 0.213176 0.904790 28 54 11
1.128222 7.449580 -1.414745 0.090721 0.913118 -0.397474 0.174916 0.844870 28 54 11
1.128222 7.449580 -1.414745 0.367321 0.913118 -0.176892 0.174916 0.844870 28 54 11
0.000000 8.177500 0.000000 0.367321 0.913118 -0.176892 0.213176 0.904790 28 54 11
1.809527 7.449580 -0.000000 0.367321 0.913118 -0.176892 0.146860 0.904790 5 54 9
-1.630327 7.449580 0.785125 -0.407695 0.913118 0.000000 0.288514 0.938043 28 54 11
0.000000 8.177500 0.000000 -0.407695 0.913118 0.000000 0.213176 0.904790 28 54 11
-1.630328 7.449580 -0.785124 -0.407695 0.913118 0.000000 0.288514 0.871537 5 54 9
1.809527 7.449580 -0.000000 0.367321 0.913118 0.176892 0.146860 0.904790 5 54 9
0.000000 8.177500 0.000000 0.367321 0.913118 0.176892 0.213176 0.904790 28 54 11
1.128222 7.449580 1.414746 0.367321 0.913118 0.176892 0.174916 0.964710 11 54 9
1.128222 7.449580 1.414746 0.000000 -1.000000 0.000000 0.029087 0.844870 5 54 9
-1.630327 7.449580 0.785125 0.000000 -1.000000 0.000000 0.146860 0.871537 5 54 9
-0.402658 7.449580 -1.764158 0.000000 -1.000000 0.000000 0.094446 0.979510 5 54 9
0.322320 8.275746 -1.412176 0.254194 0.913118 -0.318750 0.493566 0.949754 25 54 11
0.000000 8.858434 0.000000 0.254194 0.913118 -0.318750 0.486857 0.889942 6 54 9
1.305047 8.275746 -0.628477 0.254194 0.913118 -0.318750 0.534035 0.916561 28 54 11
-0.903121 8.275746 -1.132477 -0.090721 0.913118 -0.397474 0.443102 0.937907 5 54 9
0.000000 8.858434 0.000000 -0.090721 0.913118 -0.397474 0.486857 0.889942 14 54 9
0.322320 8.275746 -1.412176 -0.090721 0.913118 -0.397474 0.493566 0.949754 25 54 11
1.305047 8.275746 0.628478 0.254194 0.913118 0.318749 0.534035 0.863324 28 54 11
0.000000 8.858434 0.000000 0.254194 0.913118 0.318749 0.486857 0.889942 8 54 9
0.322320 8.275746 1.412176 0.254194 0.913118 0.318749 0.493566 0.830131 28 54 11
0.322320 8.275746 1.412176 -0.090721 0.913118 0.397474 0.493566 0.830131 28 54 11
0.000000 8.858434 0.000000 -0.090721 0.913118 0.397474 0.486857 0.889942 13 54 9
-0.903120 8.275746 1.132478 -0.090721 0.913118 0.397474 0.443102 0.841977 19 54 10
-0.903120 8.275746 1.132478 -0.367321 0.913118 0.176893 0.443102 0.841977 11 54 10
0.000000 8.858434 0.000000 -0.367321 0.913118 0.176893 0.486857 0.889942 13 54 9
-1.448493 8.275746 0.000000 -0.367321 0.913118 0.176893 0.420643 0.889942 18 54 10
1.305047 8.275746 -0.628477 0.407696 0.913118 0.000000 0.534035 0.916561 28 54 11
0.000000 8.858434 0.000000 0.407696 0.913118 0.000000 0.486857 0.889942 6 54 9
1.305047 8.275746 0.628478 0.407696 0.913118 0.000000 0.534035 0.863324 28 54 11
-1.448493 8.275746 0.000000 -0.367321 0.913118 -0.176893 0.420643 0.889942 18 54 10
0.000000 8.858434 0.000000 -0.367321 0.913118 -0.176893 0.486857 0.889942 14 54 9
-0.903121 8.275746 -1.132477 -0.367321 0.913118 -0.176893 0.443102 0.937907 5 54 9
-0.903121 8.275746 -1.132477 0.000000 -1.000000 -0.000000 0.326368 0.841977 7 56 11
1.305047 8.275746 -0.628477 0.000000 -1.000000 -0.000000 0.420643 0.863324 26 54 11
-0.903120 8.275746 1.132478 0.000000 -1.000000 -0.000000 0.326368 0.937907 10 58 14
0.250433 0.000000 -0.181950 0.999966 0.008265 0.000000 0.881066 0.717689 54 28 16
0.181881 8.293507 -0.140896 0.999966 0.008265 0.000000 0.879313 0.366605 54 28 16
0.181881 8.293507 0.117984 0.999966 0.008265 0.000000 0.868261 0.366605 54 28 16
0.181881 8.293507 0.117984 0.306467 0.128194 0.943209 0.290732 0.374996 29 53 11
0.012898 9.857645 -0.039696 0.306467 0.128194 0.943209 0.285951 0.308406 54 28 16
-0.064328 8.293507 0.197982 0.306467 0.128194 0.943209 0.279679 0.374996 29 53 11
0.181881 8.293507 -0.140896 0.994215 0.107411 0.000000 0.879313 0.366605 28 54 11
0.012898 9.857645 -0.039696 0.994215 0.107411 0.000000 0.874993 0.300118 54 28 16
0.181881 8.293507 0.117984 0.994215 0.107411 0.000000 0.868261 0.366605 28 54 11
-0.216494 8.293507 -0.011456 -0.804337 0.107411 -0.584385 0.893871 0.366605 28 54 11
0.012898 9.857645 -0.039696 -0.804337 0.107411 -0.584385 0.887139 0.300118 54 28 16
-0.064328 8.293507 -0.220894 -0.804337 0.107411 -0.584385 0.882819 0.366605 28 54 11
-0.064328 8.293507 -0.220894 0.307634 0.094494 -0.946801 0.909897 0.366551 48 34 16
0.012898 9.857645 -0.039696 0.307634 0.094494 -0.946801 0.904370 0.300118 54 28 16
0.058776 8.293507 -0.180895 0.307634 0.094494 -0.946801 0.904370 0.366551 36 46 13
0.058776 8.293507 -0.180895 0.307634 0.094494 -0.946801 0.904370 0.366551 34 48 13
0.181881 8.293507 -0.140896 0.307634 0.094494 -0.946801 0.898844 0.366551 28 54 11
-0.064328 8.293507 0.197982 -0.802342 0.128194 0.582936 0.862986 0.366708 29 53 11
0.012898 9.857645 -0.039696 -0.802342 0.128194 0.582936 0.856714 0.300118 54 28 16
-0.216494 8.293507 -0.011456 -0.802342 0.128194 0.582936 0.851933 0.366708 28 54 11
1.041049 9.043652 0.000000 0.709585 0.616212 0.341718 0.571971 0.590561 11 54 9
0.000000 10.242447 0.000000 0.709585 0.616212 0.341718 0.571971 0.646218 5 54 9
0.649083 9.043652 0.813925 0.709585 0.616212 0.341718 0.538520 0.608342 15 54 10
-0.937952 9.043652 0.451694 -0.787580 0.616212 0.000000 0.687989 0.239396 28 54 11
0.000000 10.242447 0.000000 -0.787580 0.616212 0.000000 0.740455 0.221187 28 54 11
-0.937952 9.043652 -0.451694 -0.787580 0.616212 0.000000 0.712565 0.268885 5 54 9
-0.231655 9.043652 -1.014947 0.175253 0.616213 -0.767834 0.233361 0.693644 5 54 9
0.000000 10.242447 0.000000 0.175253 0.616213 -0.767834 0.259352 0.652326 5 54 9
0.649083 9.043652 -0.813925 0.175253 0.616213 -0.767834 0.259352 0.714016 22 54 10
-0.937952 9.043652 -0.451694 -0.491048 0.616212 -0.615755 0.712565 0.268885 5 54 9
0.000000 10.242447 0.000000 -0.491048 0.616212 -0.615755 0.740455 0.221187 28 54 11
-0.231655 9.043652 -1.014947 -0.491048 0.616212 -0.615755 0.750304 0.268885 12 54 10
0.649083 9.043652 0.813925 0.175253 0.616212 0.767834 0.564732 0.646218 15 54 10
0.000000 10.242447 0.000000 0.175253 0.616212 0.767834 0.564732 0.708185 5 54 9
-0.231655 9.043652 1.014947 0.175253 0.616212 0.767834 0.538520 0.666298 12 54 9
0.649083 9.043652 -0.813925 0.709585 0.616212 -0.341718 0.233361 0.634412 22 54 10
0.000000 10.242447 0.000000 0.709585 0.616212 -0.341718 0.266741 0.596939 5 54 9
1.041049 9.043652 0.000000 0.709585 0.616212 -0.341718 0.266741 0.652326 11 54 9
-0.231655 9.043652 1.014947 -0.491048 0.616212 0.615755 0.695082 0.202625 28 54 11
0.000000 10.242447 0.000000 -0.491048 0.616212 0.615755 0.740455 0.221187 28 54 11
-0.937952 9.043652 0.451694 -0.491048 0.616212 0.615755 0.687989 0.239396 28 54 11
0.649083 9.043652 0.813925 0.000000 -1.000000 0.000000 0.657835 0.202625 7 55 11
-0.937952 9.043652 -0.451694 0.000000 -1.000000 0.000000 0.657835 0.288599 5 54 9
-0.231655 9.043652 -1.014947 0.000000 -1.000000 0.000000 0.620233 0.280085 5 54 9
3.734434 0.888314 -0.000000 0.324213 0.933010 0.156133 0.303084 0.193007 5 54 9
0.000000 2.185997 0.000000 0.324213 0.933010 0.156133 0.438509 0.161216 5 54 9
2.328382 0.888314 2.919698 0.324213 0.933010 0.156133 0.388134 0.300118 5 54 9
2.328382 0.888314 2.919698 0.080074 0.933010 0.350827 0.388134 0.300118 18 54 10
0.000000 2.185997 0.000000 0.080074 0.933010 0.350827 0.438509 0.161216 28 54 11
-0.830989 0.888314 3.640804 0.080074 0.933010 0.350827 0.521831 0.300118 28 54 11
-0.830989 0.888314 3.640804 -0.224362 0.933010 0.281341 0.521831 0.300118 28 54 11
0.000000 2.185997 0.000000 -0.224362 0.933010 0.281341 0.438509 0.161216 28 54 11
-3.364608 0.888314 1.620310 -0.224362 0.933010 0.281341 0.603498 0.193007 28 54 11
-3.364608 0.888314 1.620310 -0.359849 0.933010 0.000000 0.603498 0.193007 28 54 11
0.000000 2.185997 0.000000 -0.359849 0.933010 0.000000 0.438509 0.161216 28 54 11
-3.364608 0.888314 -1.620309 -0.359849 0.933010 0.000000 0.571639 0.059442 28 54 11
-3.364608 0.888314 -1.620309 -0.224362 0.933010 -0.281341 0.571639 0.059442 28 54 11
0.000000 2.185997 0.000000 -0.224362 0.933010 -0.281341 0.438509 0.161216 44 68 29
-0.830990 0.888314 -3.640803 -0.224362 0.933010 -0.281341 0.450244 0.000000 5 54 9
-0.830990 0.888314 -3.640803 0.080074 0.933010 -0.350827 0.450244 0.000000 5 54 9
0.000000 2.185997 0.000000 0.080074 0.933010 -0.350827 0.438509 0.161216 15 62 18
2.328381 0.888314 -2.919698 0.080074 0.933010 -0.350827 0.330726 0.059442 28 54 11
2.328381 0.888314 -2.919698 0.324213 0.933010 -0.156133 0.330726 0.059442 28 54 11
0.000000 2.185997 0.000000 0.324213 0.933010 -0.156133 0.438509 0.161216 5 54 9
3.734434 0.888314 -0.000000 0.324213 0.933010 -0.156133 0.303084 0.193007 5 54 9
2.328382 0.888314 2.919698 0.000000 -1.000000 0.000000 0.303084 0.222830 5 54 9
-3.364608 0.888314 1.620310 0.000000 -1.000000 0.000000 0.060030 0.277864 6 54 10
-0.830990 0.888314 -3.640803 0.000000 -1.000000 0.000000 0.060030 0.030542 29 73 33
0.250433 0.000000 -0.181950 0.309009 0.007262 -0.951031 0.896603 0.717676 54 28 16
-0.216494 8.293507 -0.011456 -0.808977 0.009889 0.587757 0.851933 0.366708 54 28 16
-0.064328 8.293507 -0.220894 -0.808989 0.008265 -0.587765 0.882819 0.366605 54 28 16
-0.095657 0.000000 0.294402 0.309002 0.009889 0.951010 0.277135 0.726003 55 29 17
2.008753 3.251046 -2.518898 0.000000 -1.000000 -0.000000 0.849994 0.492359 5 54 9
3.221790 3.251046 -0.000000 0.000000 -1.000000 -0.000000 0.756673 0.566188 5 54 9
-0.716915 3.251046 3.141013 0.000000 -1.000000 0.000000 0.588515 0.433153 5 54 9
-2.902733 3.251046 1.397882 0.000000 -1.000000 0.000000 0.640304 0.326467 5 54 9
-2.192760 2.015965 2.749635 0.000000 -1.000000 0.000000 0.486646 0.590561 5 54 9
-3.516915 2.015965 -0.000000 0.000000 -1.000000 0.000000 0.359617 0.561798 5 54 9
0.782587 2.015965 -3.428738 -0.000000 -1.000000 0.000000 0.359617 0.328881 28 54 11
3.168631 2.015965 -1.525932 -0.000000 -1.000000 0.000000 0.486646 0.300118 5 54 9
-1.808686 4.466976 2.268021 0.000000 -1.000000 0.000000 0.538520 0.657037 5 54 9
-2.900908 4.466976 -0.000000 0.000000 -1.000000 0.000000 0.538520 0.763655 5 54 9
0.645513 4.466976 -2.828176 -0.000000 -1.000000 0.000000 0.349715 0.806406 5 54 9
2.613627 4.466976 1.258657 0.000000 -1.000000 0.000000 0.349715 0.614286 5 54 9
1.529760 5.574122 -1.918259 0.000000 -1.000000 -0.000000 0.603498 0.101312 5 54 9
2.453545 5.574122 0.000000 0.000000 -1.000000 -0.000000 0.642938 0.020066 5 54 9
-0.545965 5.574122 2.392030 0.000000 -1.000000 0.000000 0.802626 0.056224 5 54 9
-2.210567 5.574122 -1.064553 0.000000 -1.000000 0.000000 0.731558 0.202625 26 70 29
-2.117738 6.496421 -0.000000 0.000000 -1.000000 0.000000 0.622557 0.842427 5 54 9
0.471241 6.496421 -2.064642 -0.000000 -1.000000 0.000000 0.760389 0.873637 14 62 18
1.908016 6.496421 0.918852 0.000000 -1.000000 0.000000 0.699048 1.000000 5 54 9
0.471241 6.496421 2.064642 0.000000 -1.000000 0.000000 0.622557 0.982680 5 54 9
1.128222 7.449580 -1.414745 0.000000 -1.000000 -0.000000 0.029087 0.964710 5 54 9
1.809527 7.449580 -0.000000 0.000000 -1.000000 -0.000000 0.000000 0.904790 5 54 9
-0.402657 7.449580 1.764159 0.000000 -1.000000 0.000000 0.094446 0.830071 5 54 9
-1.630328 7.449580 -0.785124 0.000000 -1.000000 0.000000 0.146860 0.938043 5 54 9
-1.448493 8.275746 0.000000 0.000000 -1.000000 0.000000 0.303084 0.889942 19 55 10
0.322320 8.275746 -1.412176 -0.000000 -1.000000 0.000000 0.378687 0.830131 5 54 9
1.305047 8.275746 0.628478 0.000000 -1.000000 0.000000 0.420643 0.916561 17 48 11
0.322320 8.275746 1.412176 0.000000 -1.000000 0.000000 0.378687 0.949754 5 54 9
0.250433 0.000000 0.181950 0.999966 0.008265 0.000000 0.865530 0.717689 55 29 17
0.649083 9.043652 -0.813925 0.000000 -1.000000 -0.000000 0.603498 0.245612 6 55 10
1.041049 9.043652 0.000000 0.000000 -1.000000 -0.000000 0.620233 0.211139 13 60 17
-0.231655 9.043652 1.014947 0.000000 -1.000000 0.000000 0.687989 0.226481 5 54 9
-0.937952 9.043652 0.451694 0.000000 -1.000000 0.000000 0.687989 0.264743 5 54 9
2.328381 0.888314 -2.919698 0.000000 -1.000000 -0.000000 0.194915 0.000000 5 54 9
3.734434 0.888314 -0.000000 0.000000 -1.000000 -0.000000 0.303084 0.085576 5 54 9
-0.830989 0.888314 3.640804 0.000000 -1.000000 0.000000 0.194915 0.308406 5 54 9
-3.364608 0.888314 -1.620309 0.000000 -1.000000 0.000000 0.000000 0.154203 5 54 9
3 0 1 2
3 0 3 4
3 5 6 7
3 8 9 10
3 11 12 13
3 14 15 16
3 17 18 19
3 20 21 22
3 23 24 25
3 26 27 28
3 29 30 31
3 32 33 34
3 35 36 37
3 38 39 40
3 41 42 43
3 44 45 46
3 47 48 49
3 50 51 52
3 53 54 55
3 56 57 58
3 59 60 61
3 62 63 64
3 65 66 67
3 68 69 70
3 71 72 73
3 74 75 76
3 77 78 79
3 80 81 82
3 83 84 85
3 86 87 88
3 89 90 91
3 92 93 94
3 95 96 97
3 98 99 100
3 101 102 103
3 104 105 106
3 107 108 109
3 110 111 112
3 113 114 115
3 116 117 118
3 119 120 121
3 122 123 124
3 125 126 127
3 128 129 130
3 131 132 133
3 134 135 136
3 137 138 139
3 140 141 142
3 143 144 145
3 146 147 148
3 149 150 151
3 152 153 154
3 155 156 157
3 158 159 160
3 161 162 163
3 164 165 166
3 167 168 169
3 170 171 172
3 173 174 175
3 176 177 178
3 179 180 181
3 182 183 184
3 185 186 187
3 188 189 190
3 191 192 193
3 194 195 196
3 197 195 198
3 199 200 201
3 202 203 204
3 205 206 207
3 208 209 210
3 211 212 213
3 214 215 216
3 217 218 219
3 220 221 222
3 223 224 225
3 226 227 228
3 229 230 231
3 232 233 234
3 235 236 237
3 238 239 240
3 241 242 243
3 244 245 246
3 247 248 249
3 0 2 3
3 0 4 250
3 5 7 251
3 8 10 252
3 11 13 253
3 254 255 73
3 71 256 257
3 257 72 71
3 73 255 71
3 258 259 77
3 77 260 261
3 261 78 77
3 79 258 77
3 262 263 83
3 83 264 84
3 84 265 85
3 85 262 83
3 266 267 109
3 107 268 108
3 108 269 109
3 109 267 107
3 133 270 131
3 131 271 132
3 132 272 273
3 273 133 132
3 274 275 155
3 155 276 156
3 156 277 157
3 157 274 155
3 181 278 179
3 179 279 180
3 180 280 281
3 281 181 180
3 182 184 282
3 283 284 223
3 223 285 286
3 286 224 223
3 225 283 223
3 287 288 247
3 247 289 248
3 248 290 249
3 249 287 247
