ply
format ascii 1.0
comment Created by Blender 2.78 (sub 0) - www.blender.org, source file: ''
element vertex 232
property float x
property float y
property float z
property float nx
property float ny
property float nz
property float s
property float t
property uchar red
property uchar green
property uchar blue
element face 89
property list uchar uint vertex_indices
end_header
0.000000 0.556693 0.000000 0.584352 0.804291 -0.107929 0.774662 0.243941 145 85 10
-0.113531 1.051533 3.072900 0.584352 0.804291 -0.107929 0.774662 0.002111 145 85 10
0.415915 0.666868 3.072900 0.584352 0.804291 -0.107929 0.733053 0.003648 145 85 10
-0.327216 -0.450374 0.000000 0.000000 -0.987281 0.158986 0.223686 0.462351 133 77 9
0.327216 -0.450374 0.000000 0.000000 -0.987281 0.158986 0.172254 0.464251 133 77 9
0.213685 0.044467 3.072900 0.000000 -0.987281 0.158986 0.172254 0.222421 133 77 9
0.000000 0.556693 0.000000 -0.581111 0.799831 -0.150269 0.774662 0.243941 133 77 9
-0.529446 0.172028 0.000000 -0.581111 0.799831 -0.150269 0.816271 0.242404 133 77 9
-0.642978 0.666868 3.072900 -0.581111 0.799831 -0.150269 0.816271 0.000574 133 77 9
0.529446 0.172028 0.000000 0.947647 -0.307909 0.084596 0.901480 0.245352 145 85 10
0.415915 0.666868 3.072900 0.947647 -0.307909 0.084596 0.901480 0.000574 145 85 10
0.213685 0.044467 3.072900 0.947647 -0.307909 0.084596 0.949805 0.008356 145 85 10
-0.529446 0.172028 0.000000 -0.950955 -0.308984 0.014623 0.960097 0.687723 133 77 9
-0.327216 -0.450374 0.000000 -0.950955 -0.308984 0.014623 0.911771 0.679941 134 78 10
-0.440747 0.044467 3.072900 -0.950955 -0.308984 0.014623 0.911771 0.924719 142 83 10
0.415915 0.666868 3.072900 0.529323 0.728550 0.434778 0.405376 0.746887 145 85 10
-0.113531 1.051533 3.072900 0.529323 0.728550 0.434778 0.405376 0.705249 145 85 10
-0.271014 -1.088629 6.850864 0.529323 0.728550 0.434778 0.108262 0.692864 145 85 10
-0.440747 0.044467 3.072900 0.000000 -0.904917 -0.425587 0.910623 0.625048 142 83 10
0.213685 0.044467 3.072900 0.000000 -0.904917 -0.425587 0.859159 0.625585 133 77 9
-0.061863 -1.732330 6.850864 0.000000 -0.904917 -0.425587 0.877728 0.328260 134 78 9
-0.642978 0.666868 3.072900 -0.539235 0.742193 0.397964 0.405376 0.663612 133 77 9
-0.609428 -1.334501 6.850864 -0.539235 0.742193 0.397964 0.108262 0.666250 141 83 10
-0.271014 -1.088629 6.850864 -0.539235 0.742193 0.397964 0.108262 0.692864 142 83 10
0.213685 0.044467 3.072900 0.948324 -0.308129 -0.075748 0.956172 0.350831 145 85 10
0.415915 0.666868 3.072900 0.948324 -0.308129 -0.075748 0.999426 0.327917 145 85 10
0.067399 -1.334501 6.850864 0.948324 -0.308129 -0.075748 0.999426 0.664147 145 85 10
-0.440747 0.044467 3.072900 -0.939797 -0.305359 -0.153417 0.911771 0.350831 142 83 10
-0.480166 -1.732330 6.850864 -0.939797 -0.305359 -0.153417 0.927378 0.678793 136 79 9
-0.609428 -1.334501 6.850864 -0.939797 -0.305359 -0.153417 0.955025 0.664147 141 83 10
-0.549712 -0.002496 4.425737 -0.936478 -0.304280 0.174423 0.224833 0.341692 136 79 9
-0.431310 -0.366901 4.425737 -0.936478 -0.304280 0.174423 0.244575 0.362466 135 79 12
-0.597564 0.757035 5.493820 -0.936478 -0.304280 0.174423 0.244575 0.240529 145 85 10
-0.239731 0.222719 4.425737 0.472604 0.650483 -0.594573 0.684437 0.880244 145 85 10
-0.413047 1.324919 5.493820 0.472604 0.650483 -0.594573 0.684437 0.795147 145 85 10
-0.114492 1.108007 5.493820 0.472604 0.650483 -0.594573 0.661260 0.798907 145 85 10
-0.431310 -0.366901 4.425737 0.000000 -0.688866 0.724889 0.244575 0.596060 133 77 9
-0.048152 -0.366901 4.425737 0.000000 -0.688866 0.724889 0.214766 0.600469 138 80 10
-0.228530 0.757036 5.493820 0.000000 -0.688866 0.724889 0.215865 0.510954 144 86 11
-0.239731 0.222719 4.425737 -0.430367 0.592350 -0.681106 0.527590 0.822633 145 85 10
-0.549712 -0.002496 4.425737 -0.430367 0.592350 -0.681106 0.554269 0.836643 145 85 10
-0.711601 1.108007 5.493820 -0.430367 0.592350 -0.681106 0.554269 0.748385 145 85 10
0.070251 -0.002496 4.425737 0.855457 -0.277955 0.436960 0.224833 0.484785 145 85 10
-0.114492 1.108007 5.493820 0.855457 -0.277955 0.436960 0.225561 0.363614 145 85 10
-0.228530 0.757036 5.493820 0.855457 -0.277955 0.436960 0.244575 0.383622 145 85 10
-0.114492 1.108007 5.493820 0.938418 -0.304911 -0.162485 0.859159 0.308914 145 85 10
0.245819 1.745113 6.379213 0.938418 -0.304911 -0.162485 0.865995 0.223402 134 78 9
0.168819 1.508131 6.379213 0.938418 -0.304911 -0.162485 0.880207 0.235459 134 78 9
-0.711601 1.108007 5.493820 -0.736248 -0.239221 0.633018 0.823922 0.428241 145 85 10
-0.597564 0.757035 5.493820 -0.736248 -0.239221 0.633018 0.844970 0.446096 145 85 10
-0.080358 1.508131 6.379213 -0.736248 -0.239221 0.633018 0.844970 0.354786 133 77 9
-0.413047 1.324919 5.493820 0.454215 0.625174 -0.634702 0.755298 0.448452 145 85 10
0.044231 1.891575 6.379213 0.454215 0.625174 -0.634702 0.698107 0.451352 134 78 9
0.245819 1.745113 6.379213 0.454215 0.625174 -0.634702 0.698107 0.470949 134 78 9
-0.228530 0.757036 5.493820 0.000001 -0.762572 0.646904 0.823922 0.326943 145 85 10
0.168819 1.508131 6.379213 0.000001 -0.762572 0.646904 0.832061 0.251057 134 78 9
-0.080358 1.508131 6.379213 0.000001 -0.762572 0.646904 0.848982 0.260941 133 77 9
-0.413047 1.324919 5.493820 -0.574748 0.791072 -0.209451 0.685584 0.873249 145 85 10
-0.711601 1.108007 5.493820 -0.574748 0.791072 -0.209451 0.705486 0.885707 145 85 10
-0.157358 1.745113 6.379213 -0.574748 0.791072 -0.209451 0.705486 0.803559 134 77 9
-0.609428 -1.334501 6.850864 -0.427880 0.588926 0.685627 0.353104 0.786650 141 83 10
-0.503559 -1.886863 7.391391 -0.427880 0.588926 0.685627 0.374674 0.748035 133 77 9
-0.309620 -1.745959 7.391391 -0.427880 0.588926 0.685627 0.385665 0.763352 134 77 9
-0.061863 -1.732330 6.850864 0.951037 -0.309011 0.006347 0.844710 0.823744 134 78 9
0.067399 -1.334501 6.850864 0.951037 -0.309011 0.006347 0.866593 0.801382 136 79 9
-0.115681 -1.886863 7.391391 0.951037 -0.309011 0.006347 0.866593 0.862161 133 77 9
-0.480166 -1.732330 6.850864 -0.943180 -0.306457 -0.128434 0.706634 0.817508 136 79 9
-0.429481 -2.114852 7.391391 -0.943180 -0.306457 -0.128434 0.715976 0.868740 133 77 9
-0.503559 -1.886863 7.391391 -0.943180 -0.306457 -0.128434 0.728516 0.855926 133 77 9
0.067399 -1.334501 6.850864 0.410297 0.564725 0.716061 0.403629 0.803396 145 85 10
-0.271014 -1.088629 6.850864 0.410297 0.564725 0.716061 0.372283 0.813377 145 85 10
-0.309620 -1.745959 7.391391 0.410297 0.564725 0.716061 0.385665 0.763352 145 85 10
-0.480166 -1.732330 6.850864 0.000000 -0.816274 -0.577664 0.717055 0.659629 145 85 10
-0.061863 -1.732330 6.850864 0.000000 -0.816274 -0.577664 0.717055 0.626732 145 85 10
-0.189759 -2.114852 7.391391 0.000000 -0.816274 -0.577664 0.759564 0.636791 145 85 10
-2.324101 -1.367243 8.934072 -0.929326 -0.328132 -0.169360 0.405376 0.486684 32 144 35
-1.511064 -2.785657 7.220861 -0.929326 -0.328132 -0.169360 0.248645 0.564349 30 145 34
-1.649401 -3.542765 9.446839 -0.929326 -0.328132 -0.169360 0.405376 0.662464 61 120 46
-1.511064 -2.785657 7.220861 -0.903428 0.000000 -0.428739 0.717055 0.522010 30 145 34
-2.324101 -1.367243 8.934072 -0.903428 0.000000 -0.428739 0.858011 0.625585 32 144 35
-1.511064 -0.937889 7.220861 -0.903428 0.000000 -0.428739 0.858011 0.486684 47 154 51
-2.324101 -1.367243 8.934072 -0.560867 0.021129 0.827636 0.423745 0.367333 32 144 35
-1.649401 -3.542765 9.446839 -0.560867 0.021129 0.827636 0.560008 0.251057 60 119 45
-0.396615 -1.560658 10.245216 -0.560867 0.021129 0.827636 0.560008 0.435463 42 135 38
-2.324101 -1.367243 8.934072 -0.502689 0.349697 0.790579 0.423745 0.367333 32 144 35
-0.396615 -1.560658 10.245216 -0.502689 0.349697 0.790579 0.560008 0.435463 42 135 38
-0.822304 0.421449 9.097798 -0.502689 0.349697 0.790579 0.448426 0.549345 48 135 43
-2.324101 -1.367243 8.934072 -0.742910 0.641312 -0.191840 0.872376 0.661334 32 144 35
-0.822304 0.421449 9.097798 -0.742910 0.641312 -0.191840 0.732796 0.683041 48 135 43
-1.511064 -0.937889 7.220861 -0.742910 0.641312 -0.191840 0.872376 0.800235 47 154 51
-1.649401 -3.542765 9.446839 -0.549010 -0.785010 -0.286963 0.250541 0.003181 64 121 49
-1.511064 -2.785657 7.220861 -0.549010 -0.785010 -0.286963 0.425919 0.000574 30 145 34
-0.459237 -3.510768 7.082323 -0.549010 -0.785010 -0.286963 0.443140 0.082212 30 145 34
0.592590 -4.235879 7.163404 -0.549010 -0.785010 -0.286963 0.443140 0.165177 63 117 46
-0.396615 -1.560658 10.245216 -0.008526 -0.368968 0.929403 0.146816 0.153732 43 136 40
-1.649401 -3.542765 9.446839 -0.008526 -0.368968 0.929403 0.000574 0.041397 64 121 49
1.476737 -2.947093 9.711994 -0.008526 -0.368968 0.929403 0.247498 0.000574 39 149 43
-0.822304 0.421449 9.097798 -0.411266 0.388902 0.824388 0.108262 0.852965 48 135 43
-0.396615 -1.560658 10.245216 -0.411266 0.388902 0.824388 0.228301 0.748035 42 135 38
0.517175 -0.335659 10.123194 -0.411266 0.388902 0.824388 0.228301 0.868225 30 145 34
-1.511064 -0.937889 7.220861 -0.404152 0.804854 -0.434593 0.560008 0.550492 81 170 84
-0.822304 0.421449 9.097798 -0.404152 0.804854 -0.434593 0.423189 0.627974 30 145 34
0.787976 0.421449 7.600309 -0.404152 0.804854 -0.434593 0.560008 0.733744 30 145 34
-1.649401 -3.542765 9.446839 0.137268 -0.902304 0.408662 0.250541 0.003181 64 121 49
0.592590 -4.235879 7.163404 0.137268 -0.902304 0.408662 0.443140 0.165177 30 145 34
1.476737 -2.947093 9.711994 0.137268 -0.902304 0.408662 0.248645 0.249909 94 175 96
-0.396615 -1.560658 10.245216 0.224409 -0.070584 0.971935 0.146816 0.153732 43 136 40
1.476737 -2.947093 9.711994 0.224409 -0.070584 0.971935 0.247498 0.000574 39 149 43
0.517175 -0.335659 10.123194 0.224409 -0.070584 0.971935 0.247498 0.219373 31 145 35
-0.822304 0.421449 9.097798 0.282159 0.910125 0.303411 0.731648 0.793999 30 145 34
0.517175 -0.335659 10.123194 0.282159 0.910125 0.303411 0.731648 0.661334 30 145 34
0.787976 0.421449 7.600309 0.282159 0.910125 0.303411 0.561156 0.765028 30 145 34
1.476737 -2.947093 9.711994 0.923379 -0.362095 -0.127508 0.623465 0.000574 64 162 68
0.592590 -4.235879 7.163404 0.923379 -0.362095 -0.127508 0.623465 0.225175 32 146 36
1.133799 -2.898268 7.089878 0.923379 -0.362095 -0.127508 0.526981 0.182864 54 157 58
1.675008 -1.560658 7.404937 0.923379 -0.362095 -0.127508 0.444287 0.113282 30 145 34
0.517175 -0.335659 10.123194 0.919379 0.297253 0.257648 0.422597 0.485536 30 145 34
1.476737 -2.947093 9.711994 0.919379 0.297253 0.257648 0.248645 0.371673 31 146 35
1.675008 -1.560658 7.404937 0.919379 0.297253 0.257648 0.422597 0.251057 62 118 46
0.787976 0.421449 7.600309 0.899775 0.381852 0.211172 0.561156 0.407483 30 145 34
0.517175 -0.335659 10.123194 0.899775 0.381852 0.211172 0.696959 0.251057 30 145 34
1.675008 -1.560658 7.404937 0.899775 0.381852 0.211172 0.696959 0.485537 30 145 34
-1.511064 -0.937889 7.220861 0.057679 0.000000 -0.998335 0.035470 0.272671 31 146 35
1.675008 -1.560658 7.404937 0.057679 0.000000 -0.998335 0.171106 0.488969 31 145 35
0.081972 -2.173158 7.312899 0.057679 0.000000 -0.998335 0.171106 0.354745 30 145 34
-1.511064 -2.785657 7.220861 0.057679 0.000000 -0.998335 0.171106 0.220521 30 145 34
-0.731218 2.942325 7.155756 -0.207599 0.977614 0.034267 0.135800 0.546898 30 145 34
-1.472592 2.820503 6.139847 -0.207599 0.977614 0.034267 0.210958 0.611194 39 150 43
-1.783599 2.708461 7.452131 -0.207599 0.977614 0.034267 0.210958 0.505132 30 145 34
-1.472592 2.820503 6.139847 -0.367348 0.916536 0.158171 0.188157 0.869373 30 145 34
-0.731218 2.942325 7.155756 -0.367348 0.916536 0.158171 0.108262 0.927677 30 145 34
-0.218746 3.323045 6.139847 -0.367348 0.916536 0.158171 0.188157 0.967980 30 145 34
-0.731218 2.942325 7.155756 -0.028233 0.831035 0.555503 0.135800 0.546898 30 145 34
-1.783599 2.708461 7.452131 -0.028233 0.831035 0.555503 0.210958 0.505132 30 145 34
-0.338240 2.397434 7.990891 -0.028233 0.831035 0.555503 0.090582 0.490116 30 145 34
-0.731218 2.942325 7.155756 -0.356174 0.696997 0.622363 0.135800 0.546898 32 143 35
-0.338240 2.397434 7.990891 -0.356174 0.696997 0.622363 0.090582 0.490116 33 143 35
0.890988 3.225373 7.767143 -0.356174 0.696997 0.622363 0.000574 0.529532 30 145 34
-0.731218 2.942325 7.155756 -0.249736 0.941377 0.226809 0.135800 0.546898 30 145 34
0.890988 3.225373 7.767143 -0.249736 0.941377 0.226809 0.000574 0.529532 30 145 34
-0.218746 3.323045 6.139847 -0.249736 0.941377 0.226809 0.115008 0.633933 30 145 34
-1.783599 2.708461 7.452131 -0.890423 0.420078 -0.175161 0.526443 0.743097 30 145 34
-1.472592 2.820503 6.139847 -0.890423 0.420078 -0.175161 0.423189 0.734892 39 150 43
-2.030016 1.650309 6.167084 -0.890423 0.420078 -0.175161 0.425872 0.826906 38 138 37
-0.338240 2.397434 7.990891 -0.379938 -0.201941 0.902700 0.626201 0.560655 33 143 35
-1.783599 2.708461 7.452131 -0.379938 -0.201941 0.902700 0.715907 0.486684 30 145 34
-0.769537 0.749155 7.440628 -0.379938 -0.201941 0.902700 0.715907 0.660187 61 119 45
0.890988 3.225373 7.767143 0.176143 0.004501 0.984354 0.423189 0.975044 30 145 34
-0.338240 2.397434 7.990891 0.176143 0.004501 0.984354 0.510944 0.898335 33 143 35
0.741537 2.110527 7.798985 0.176143 0.004501 0.984354 0.510944 0.986200 37 139 36
-0.218746 3.323045 6.139847 0.606917 0.702477 -0.371724 0.229449 0.764846 30 145 34
0.890988 3.225373 7.767143 0.606917 0.702477 -0.371724 0.351956 0.859644 45 152 48
1.328940 2.132681 6.417242 0.606917 0.702477 -0.371724 0.351956 0.748035 30 145 34
-1.783599 2.708461 7.452131 -0.776801 -0.404874 0.482345 0.526443 0.743097 30 145 34
-2.030016 1.650309 6.167084 -0.776801 -0.404874 0.482345 0.425872 0.826906 38 138 37
-0.769537 0.749155 7.440628 -0.776801 -0.404874 0.482345 0.526443 0.897188 61 119 45
-0.338240 2.397434 7.990891 0.078184 -0.334038 0.939311 0.626201 0.560655 33 143 35
-0.769537 0.749155 7.440628 0.078184 -0.334038 0.939311 0.715907 0.660187 65 121 49
0.741537 2.110527 7.798985 0.078184 -0.334038 0.939311 0.561156 0.619726 37 139 36
0.890988 3.225373 7.767143 0.915184 -0.111624 0.387271 0.000574 0.824905 30 145 34
0.741537 2.110527 7.798985 0.915184 -0.111624 0.387271 0.088198 0.820996 30 145 34
1.328940 2.132681 6.417242 0.915184 -0.111624 0.387271 0.088198 0.929675 30 145 34
-0.769537 0.749155 7.440628 -0.240937 -0.888601 -0.390305 0.731905 0.122707 62 119 46
-2.030016 1.650309 6.167084 -0.240937 -0.888601 -0.390305 0.657326 0.242272 69 154 67
0.225184 0.991687 6.274416 -0.240937 -0.888601 -0.390305 0.624613 0.067753 56 123 44
0.741537 2.110527 7.798985 0.582351 -0.736806 0.343487 0.731905 0.000574 30 145 34
-0.769537 0.749155 7.440628 0.582351 -0.736806 0.343487 0.731905 0.122707 30 145 34
0.225184 0.991687 6.274416 0.582351 -0.736806 0.343487 0.624613 0.067753 30 145 34
1.328940 2.132681 6.417242 0.673509 -0.685991 0.275322 0.343144 0.948319 30 145 34
0.741537 2.110527 7.798985 0.673509 -0.685991 0.275322 0.229449 0.916451 30 145 34
0.225184 0.991687 6.274416 0.673509 -0.685991 0.275322 0.343144 0.860792 30 145 34
-0.218746 3.323045 6.139847 0.021459 -0.053539 -0.998335 0.723618 0.289181 30 145 34
0.225184 0.991687 6.274416 0.021459 -0.053539 -0.998335 0.822774 0.447305 30 145 34
-1.472592 2.820503 6.139847 0.021459 -0.053539 -0.998335 0.822774 0.251057 30 145 34
0.529446 0.172028 0.000000 0.584352 0.804291 -0.107929 0.733053 0.245479 145 85 10
-0.440747 0.044467 3.072900 0.000000 -0.987281 0.158986 0.223686 0.220521 142 83 10
-0.113531 1.051533 3.072900 -0.581111 0.799831 -0.150269 0.774662 0.002111 133 77 9
0.327216 -0.450374 0.000000 0.947647 -0.307909 0.084596 0.949805 0.253135 145 85 10
-0.642978 0.666868 3.072900 -0.950955 -0.308984 0.014623 0.960097 0.932501 133 77 9
0.067399 -1.334501 6.850864 0.529323 0.728550 0.434778 0.108262 0.719479 145 85 10
-0.480166 -1.732330 6.850864 0.000000 -0.904917 -0.425587 0.910623 0.327917 136 79 9
-0.113531 1.051533 3.072900 -0.539235 0.742193 0.397964 0.405376 0.705249 133 77 9
-0.061863 -1.732330 6.850864 0.948324 -0.308129 -0.075748 0.971779 0.678793 145 85 10
-0.642978 0.666868 3.072900 -0.939797 -0.305359 -0.153417 0.955025 0.327917 133 77 9
-0.711601 1.108007 5.493820 -0.936478 -0.304280 0.174423 0.225561 0.220521 145 85 10
0.070251 -0.002496 4.425737 0.472604 0.650483 -0.594573 0.660373 0.884148 145 85 10
-0.431310 -0.366901 4.425737 0.000001 -0.688866 0.724889 0.244575 0.596060 133 77 9
-0.228530 0.757036 5.493820 0.000001 -0.688866 0.724889 0.215865 0.510954 144 86 11
-0.597564 0.757035 5.493820 0.000001 -0.688866 0.724889 0.244575 0.506707 144 85 10
-0.413047 1.324919 5.493820 -0.430367 0.592350 -0.681106 0.528574 0.734892 145 85 10
-0.048152 -0.366901 4.425737 0.855457 -0.277955 0.436960 0.244575 0.505559 145 85 10
-0.114492 1.108007 5.493820 0.938418 -0.304911 -0.162484 0.859159 0.308914 145 85 10
0.168819 1.508131 6.379213 0.938418 -0.304911 -0.162484 0.880207 0.235459 134 78 9
-0.228530 0.757036 5.493820 0.938418 -0.304911 -0.162484 0.880207 0.326770 145 85 10
-0.157358 1.745113 6.379213 -0.736248 -0.239221 0.633018 0.830758 0.342729 134 77 9
-0.114492 1.108007 5.493820 0.454215 0.625174 -0.634702 0.755298 0.477475 145 85 10
-0.228530 0.757036 5.493820 0.000001 -0.762572 0.646904 0.823922 0.326943 144 86 11
-0.080358 1.508131 6.379213 0.000001 -0.762572 0.646904 0.848982 0.260941 131 78 9
-0.597564 0.757035 5.493820 0.000001 -0.762572 0.646904 0.848982 0.341582 144 85 10
0.044231 1.891575 6.379213 -0.574748 0.791072 -0.209451 0.692048 0.795147 134 78 9
-0.271014 -1.088629 6.850864 -0.427880 0.588926 0.685627 0.372283 0.813377 142 83 10
-0.189759 -2.114852 7.391391 0.951037 -0.309011 0.006347 0.854052 0.874976 133 77 9
-0.480166 -1.732330 6.850864 -0.943180 -0.306458 -0.128434 0.706634 0.817508 136 79 9
-0.503559 -1.886863 7.391391 -0.943180 -0.306458 -0.128434 0.728516 0.855926 133 77 9
-0.609428 -1.334501 6.850864 -0.943180 -0.306458 -0.128434 0.728516 0.795147 141 83 10
0.067399 -1.334501 6.850864 0.410297 0.564725 0.716061 0.403629 0.803396 136 79 9
-0.309620 -1.745959 7.391391 0.410297 0.564725 0.716061 0.385665 0.763352 134 77 9
-0.115681 -1.886863 7.391391 0.410297 0.564725 0.716061 0.403629 0.757632 133 77 9
-0.480166 -1.732330 6.850864 0.000001 -0.816274 -0.577664 0.717055 0.659629 145 85 10
-0.189759 -2.114852 7.391391 0.000001 -0.816274 -0.577664 0.759564 0.636791 145 85 10
-0.429481 -2.114852 7.391391 0.000001 -0.816274 -0.577664 0.759564 0.655643 145 85 10
0.592590 -4.235879 7.163404 0.030560 -0.067183 -0.997273 0.659226 0.795147 30 145 34
-0.459237 -3.510768 7.082323 0.030560 -0.067183 -0.997273 0.561156 0.816983 30 145 34
1.133799 -2.898268 7.089878 0.030560 -0.067183 -0.997273 0.659226 0.908626 67 163 71
-1.511064 -0.937889 7.220861 0.083362 0.134631 -0.987383 0.035470 0.272671 31 146 35
0.787976 0.421449 7.600309 0.083362 0.134631 -0.987383 0.000574 0.479798 30 145 34
1.675008 -1.560658 7.404937 0.083362 0.134631 -0.987383 0.171106 0.488969 30 145 34
-2.030016 1.650309 6.167084 0.035761 -0.040277 -0.998548 0.101202 0.635081 45 144 45
-1.472592 2.820503 6.139847 0.035761 -0.040277 -0.998548 0.000574 0.651362 30 145 34
0.225184 0.991687 6.274416 0.035761 -0.040277 -0.998548 0.101202 0.819848 30 145 34
-0.218746 3.323045 6.139847 0.155980 -0.027292 -0.987383 0.723618 0.289181 30 145 34
1.328940 2.132681 6.417242 0.155980 -0.027292 -0.987383 0.698107 0.440600 30 145 34
0.225184 0.991687 6.274416 0.155980 -0.027292 -0.987383 0.822774 0.447305 30 145 34
1.133799 -2.898268 7.089878 -0.037629 0.243502 -0.969170 0.900332 0.134798 30 145 34
0.081972 -2.173158 7.312899 -0.037629 0.243502 -0.969170 0.817419 0.078053 30 145 34
1.675008 -1.560658 7.404937 -0.037629 0.243502 -0.969170 0.817419 0.212277 30 145 34
1.133799 -2.898268 7.089878 -0.071249 0.197369 -0.977737 0.900332 0.134798 30 145 34
-0.459237 -3.510768 7.082323 -0.071249 0.197369 -0.977737 0.900332 0.000574 30 145 34
0.081972 -2.173158 7.312899 -0.071249 0.197369 -0.977737 0.817419 0.078053 30 145 34
-0.459237 -3.510768 7.082323 -0.009915 0.173760 -0.984738 0.843563 0.901854 30 145 34
-1.511064 -2.785657 7.220861 -0.009915 0.173760 -0.984738 0.843563 0.801382 30 145 34
0.081972 -2.173158 7.312899 -0.009915 0.173760 -0.984738 0.732796 0.877190 30 145 34
3 0 1 2
3 3 4 5
3 6 7 8
3 9 10 11
3 12 13 14
3 15 16 17
3 18 19 20
3 21 22 23
3 24 25 26
3 27 28 29
3 30 31 32
3 33 34 35
3 36 37 38
3 39 40 41
3 42 43 44
3 45 46 47
3 48 49 50
3 51 52 53
3 54 55 56
3 57 58 59
3 60 61 62
3 63 64 65
3 66 67 68
3 69 70 71
3 72 73 74
3 75 76 77
3 78 79 80
3 81 82 83
3 84 85 86
3 87 88 89
4 90 91 92 93
3 94 95 96
3 97 98 99
3 100 101 102
3 103 104 105
3 106 107 108
3 109 110 111
4 112 113 114 115
3 116 117 118
3 119 120 121
4 122 123 124 125
3 126 127 128
3 129 130 131
3 132 133 134
3 135 136 137
3 138 139 140
3 141 142 143
3 144 145 146
3 147 148 149
3 150 151 152
3 153 154 155
3 156 157 158
3 159 160 161
3 162 163 164
3 165 166 167
3 168 169 170
3 171 172 173
3 0 2 174
3 3 5 175
3 6 8 176
3 9 11 177
3 12 14 178
3 15 17 179
3 18 20 180
3 21 23 181
3 24 26 182
3 27 29 183
3 30 32 184
3 33 35 185
3 186 187 188
3 39 41 189
3 42 44 190
3 191 192 193
3 48 50 194
3 51 53 195
3 196 197 198
3 57 59 199
3 60 62 200
3 63 65 201
3 202 203 204
3 205 206 207
3 208 209 210
3 211 212 213
3 214 215 216
3 217 218 219
3 220 221 222
3 223 224 225
3 226 227 228
3 229 230 231
