ply
format ascii 1.0
comment Created by Blender 2.79 (sub 0) - www.blender.org, source file: ''
element vertex 28
property float x
property float y
property float z
property float nx
property float ny
property float nz
property float s
property float t
element face 12
property list uchar uint vertex_indices
end_header
-3.006143 0.000000 -0.152093 0.000000 -1.000000 -0.000000 0.008364 0.856018
3.006143 0.000000 0.152093 0.000000 -1.000000 -0.000000 1.000718 0.906340
-3.006143 0.000000 0.152093 0.000000 -1.000000 -0.000000 0.008364 0.906340
3.006144 5.998634 0.152093 -0.000000 1.000000 0.000000 0.997359 0.902980
-3.006143 5.998634 -0.152093 -0.000000 1.000000 0.000000 0.005005 0.953302
-3.006145 5.998634 0.152093 -0.000000 1.000000 0.000000 0.005004 0.902980
-3.006145 5.998634 0.152093 -1.000000 -0.000000 -0.000000 0.478254 0.029726
-3.006143 0.000000 -0.152093 -1.000000 -0.000000 -0.000000 0.528575 1.000499
-3.006143 0.000000 0.152093 -1.000000 -0.000000 -0.000000 0.478254 1.000499
-3.006143 5.998634 -0.152093 0.000000 -0.000000 -1.000000 0.992000 0.994359
3.006145 0.000000 -0.152093 0.000000 -0.000000 -1.000000 0.006087 0.008446
-3.006143 0.000000 -0.152093 0.000000 -0.000000 -1.000000 0.992000 0.008446
3.006145 5.998634 -0.152093 1.000000 -0.000000 0.000006 0.525216 0.996648
3.006143 0.000000 0.152093 1.000000 -0.000000 0.000006 0.474894 0.006548
3.006145 0.000000 -0.152093 1.000000 -0.000000 0.000006 0.525215 0.006548
-3.006143 0.000000 0.152093 -0.000000 0.000000 1.000000 0.002347 0.004920
3.006144 5.998634 0.152093 -0.000000 0.000000 1.000000 0.995367 0.997940
-3.006145 5.998634 0.152093 -0.000000 0.000000 1.000000 0.002347 0.997940
3.006145 0.000000 -0.152093 -0.000000 -1.000000 -0.000000 1.000718 0.856018
3.006145 5.998634 -0.152093 0.000000 1.000000 -0.000000 0.997359 0.953302
-3.006145 5.998634 0.152093 -1.000000 0.000000 -0.000008 0.478254 0.029726
-3.006143 5.998634 -0.152093 -1.000000 0.000000 -0.000008 0.528575 0.029726
-3.006143 0.000000 -0.152093 -1.000000 0.000000 -0.000008 0.528575 1.000499
3.006145 5.998634 -0.152093 0.000000 0.000000 -1.000000 0.006087 0.994359
3.006145 5.998634 -0.152093 1.000000 -0.000000 0.000003 0.525216 0.996648
3.006144 5.998634 0.152093 1.000000 -0.000000 0.000003 0.474894 0.996648
3.006143 0.000000 0.152093 1.000000 -0.000000 0.000003 0.474894 0.006548
3.006143 0.000000 0.152093 0.000000 0.000000 1.000000 0.995366 0.004920
3 0 1 2
3 3 4 5
3 6 7 8
3 9 10 11
3 12 13 14
3 15 16 17
3 0 18 1
3 3 19 4
3 20 21 22
3 9 23 10
3 24 25 26
3 15 27 16
