ply
format ascii 1.0
comment Created by Blender 2.79 (sub 0) - www.blender.org, source file: 'brick_house.blend'
element vertex 4
property float x
property float y
property float z
property float nx
property float ny
property float nz
property float s
property float t
element face 2
property list uchar uint vertex_indices
end_header
-3.788160 0.000000 -4.465762 0.000000 1.000000 -0.000000 -0.846366 -0.717770
3.792352 0.000000 4.472701 0.000000 1.000000 -0.000000 1.846366 1.565876
3.792352 0.000000 -4.465762 0.000000 1.000000 -0.000000 -0.846366 1.565876
-3.788160 0.000000 4.472701 0.000000 1.000000 0.000000 1.846366 -0.717771
3 0 1 2
3 0 3 1
